<svg contentScriptType="text/ecmascript" zoomAndPan="magnify" xmlns:xlink="http://www.w3.org/1999/xlink" contentStyleType="text/css" version="1.1" width="1920" xmlns:sodipodi="http://sodipodi.sourceforge.net/DTD/sodipodi-0.dtd" xmlns:inkscape="http://www.inkscape.org/namespaces/inkscape" preserveAspectRatio="xMidYMid meet" xmlns:myscada="http://www.myscada.org" viewBox="0 0 1920 976" height="976" inkscape:voditka="{&quot;voditkoHorValues&quot;:[],&quot;voditkoVerValues&quot;:[]}" xmlns="http://www.w3.org/2000/svg">
<style id="mySCADAFontCSSs" xml:space="preserve">
@font-face{font-family:&apos;Ubuntu&apos;;src:url(&apos;Fonts/Ubuntu-R.ttf&apos;);}@font-face{font-family:&apos;Tahoma#B&apos;;src:url(&apos;Fonts/tahomabd.ttf&apos;);}@font-face{font-family:&apos;Segoe UI#B&apos;;src:url(&apos;Fonts/segoeuib.ttf&apos;);}@font-face{font-family:&apos;BankGothic Lt BT&apos;;src:url(&apos;Fonts/bgothl.ttf&apos;);}@font-face{font-family:&apos;Arial&apos;;src:url(&apos;Fonts/arial.ttf&apos;);}@font-face{font-family:&apos;Segoe UI#BI&apos;;src:url(&apos;Fonts/segoeuiz.ttf&apos;);}@font-face{font-family:&apos;Segoe UI&apos;;src:url(&apos;Fonts/segoeui.ttf&apos;);}@font-face{font-family:&apos;Arial#BI&apos;;src:url(&apos;Fonts/arialbi.ttf&apos;);}@font-face{font-family:&apos;Segoe UI#I&apos;;src:url(&apos;Fonts/segoeuii.ttf&apos;);}@font-face{font-family:&apos;Arial#B&apos;;src:url(&apos;Fonts/arialbd.ttf&apos;);}@font-face{font-family:&apos;Ubuntu#B&apos;;src:url(&apos;Fonts/Ubuntu-B.ttf&apos;);}@font-face{font-family:&apos;Tahoma&apos;;src:url(&apos;Fonts/tahoma.ttf&apos;);}@font-face{font-family:&apos;Arial#I&apos;;src:url(&apos;Fonts/ariali.ttf&apos;);}@font-face{font-family:&apos;Ubuntu#I&apos;;src:url(&apos;Fonts/Ubuntu-RI.ttf&apos;);}</style>
<defs>
<linearGradient gradientTransform="" x1="0%" xmlns:xlink="http://www.w3.org/1999/xlink" gradientUnits="objectBoundingBox" x2="100%" y1="0%" y2="0%" xlink:type="simple" xlink:actuate="onLoad" id="lin0001" xlink:show="other" spreadMethod="pad">
<stop style="stop-color:darkgrey;stop-opacity:1.0;" offset="0%"/>
<stop style="stop-color:grey;stop-opacity:1.0;" offset="100%"/>
</linearGradient>
</defs>
<rect x="0" width="1920" y="0" height="976" id="pozadiNoSeL" style="stroke:url(#lin0001);fill:url(#lin0001);stoke:#ffffff;"/>
<style type="text/css" xml:space="preserve">
* {    -webkit-touch-callout: none;    -webkit-user-select: none; /* Disable selection/Copy of UIWebView */        -ms-user-select: none;    user-select: none;    -moz-user-select: none;}</style>
<g inkscape:groupmode="layer" id="layer0" style="display:none;" inkscape:layerlabel="Grunnur_jpg">
<path id="line0003" d="M1374.5140380859375 702.669921875 L1388.4317808151245 807.5025253295898" style="stroke-linejoin:miter;stroke-dasharray:none;stroke-width:3.0;fill:#c0c0c0;stroke:#000000;stroke-linecap:butt;" transform="matrix(0.799525260925293 0 0 0.799525260925293 354.28411865234375 -0.51272869581436)"/>
<image x="-124.48605956564316" y="885.0106920228844" transform="matrix(0 1.066872051938106 -1.066872051938106 -0 2434.5668854230257 -201.9142447247935)" width="1275" xmlns:xlink="http://www.w3.org/1999/xlink" xlink:href="data/every/images/Lampaplan-page-003.jpg" xlink:type="simple" xlink:actuate="onLoad" id="image0001" height="1650" preserveAspectRatio="none meet" xlink:show="embed"/>
<image x="-160.02824371807412" y="-668.5722569750466" transform="matrix(0 1.0881956048151855 -1.0881956048151855 -0 2155.5608191731717 -158.67532040351708)" width="1275" xmlns:xlink="http://www.w3.org/1999/xlink" xlink:href="data/every/images/Lampaplan-page-004.jpg" xlink:type="simple" xlink:actuate="onLoad" id="image0002" height="1650" preserveAspectRatio="none meet" xlink:show="embed"/>
<text x="1131.816082508045" y="758.3077530971793" id="text0043" style="font-weight:normal;font-size:6pt;font-family:&apos;Arial&apos;;font-style:normal;fill:#000000;stroke:none;" transform="matrix(1 0 0 1 435.7545166015625 51.7681884765625)">
rými</text>
</g>
<g inkscape:groupmode="layer" id="layer1" style="display:inline;" inkscape:layerlabel="Background">
<path d="M2332.427978515625 580.8822021484375L243.8814697265625 891.1498413085938L254.28399658203125 961.6558227539062L2397.948974609375 959.8419799804688L2332.427978515625 580.8822021484375" id="path0001" style="stroke-linejoin:miter;stroke-dasharray:none;stroke-width:3.0;fill:#0065ad;stroke:#000000;fill-opacity:0.3;stroke-linecap:butt;" transform="matrix(0.799525260925293 0 0 0.799525260925293 -158.7582550048828 -99.17778015136719)"/>
<path id="line0002" d="M1814.6867040306934 638.6181650032718L1374.5140380859375 702.669921875" style="stroke-linejoin:miter;stroke-dasharray:none;stroke-width:3.0;fill:#c0c0c0;stroke:#000000;stroke-linecap:butt;" transform="matrix(0.799525260925293 0 0 0.799525260925293 285.0004577636719 26.815446853637695)"/>
<path id="line0001" d="M1814.531761414371 640.0577658207137L1374.5140380859375 702.669921875" style="stroke-linejoin:miter;stroke-dasharray:none;stroke-width:3.0;fill:#c0c0c0;stroke:#000000;stroke-linecap:butt;" transform="matrix(0.799525260925293 0 0 0.799525260925293 271.8606262207031 -53.91777801513672)"/>
<path id="line0005" d="M1590.6020675302157 675.1163981248634L1606.1026611328125 776.968017578125" style="stroke-linejoin:miter;stroke-dasharray:none;stroke-width:3.0;fill:#c0c0c0;stroke:#000000;stroke-linecap:butt;" transform="matrix(0.799525260925293 0 0 0.799525260925293 223.537841796875 -49.419612884521484)"/>
<path id="line0004" d="M1590.5327159883996 677.6452290321579L1606.1026611328125 776.968017578125" style="stroke-linejoin:miter;stroke-dasharray:none;stroke-width:3.0;fill:#c0c0c0;stroke:#000000;stroke-linecap:butt;" transform="matrix(0.799525260925293 0 0 0.799525260925293 264.8388366699219 -56.880435943603516)"/>
<image x="1536.5099205155857" y="691.4621382349287" width="194.24324121634447" xmlns:xlink="http://www.w3.org/1999/xlink" xlink:href="data/every/images/Rofi+3f_edit2.jpg" xlink:type="simple" xlink:actuate="onLoad" id="image0005" height="193.697614134276" preserveAspectRatio="none meet" xlink:show="embed"/>
<image xmlns:xlink="http://www.w3.org/1999/xlink" id="image0006" width="194.24324121634447" xlink:show="embed" xlink:type="simple" preserveAspectRatio="none meet" height="193.697614134276" x="113.22202475429665" rx="0" y="149.29240049599483" ry="0" xlink:href="data/every/images/Rofi+3f_edit2.jpg" xlink:actuate="onLoad"/>
<image x="113.63812986856195" y="340.8106038370113" width="194.24324121634447" xmlns:xlink="http://www.w3.org/1999/xlink" xlink:href="data/every/images/Rofi+3f_edit2.jpg" xlink:type="simple" xlink:actuate="onLoad" height="193.697614134276" id="image0007" preserveAspectRatio="none meet" xlink:show="embed"/>
</g>
<g inkscape:groupmode="layer" id="layer2" style="display:inline;" inkscape:layerlabel="Texti">
<text x="613.8227176220806" y="299.0941259731069" id="text0055" style="font-weight:normal;text-anchor:middle;font-size:12pt;font-family:&apos;Arial&apos;;font-style:normal;fill:#000000;stroke:none;" transform="matrix(1 0 0 1 357.7957763671875 303.5569152832031)" inkscape:label="{&quot;align&quot;:&quot;Right&quot;,&quot;attr&quot;:&quot;get&quot;,&quot;tag&quot;:&quot;=100.0*adr(5:1/4/92@KNX) /254.0+0&quot;,&quot;alias&quot;:&quot;=100.0*alias(lýsing.kveikingar.Fjölnota rými - Loftljós.FB Value) /254.0+0&quot;,&quot;plcName&quot;:&quot;&quot;,&quot;type&quot;:&quot;Value&quot;,&quot;param&quot;:&quot;Decimal&quot;,&quot;stringType&quot;:&quot;10;0;Automatic&quot;}">
# %</text>
<text x="613.8227176220806" y="299.0941259731069" id="text0056" style="font-weight:normal;text-anchor:middle;font-size:12pt;font-family:&apos;Arial&apos;;font-style:normal;fill:#000000;stroke:none;" transform="matrix(1 0 0 1 1028.7957763671875 206.55691528320312)" inkscape:label="{&quot;align&quot;:&quot;Right&quot;,&quot;attr&quot;:&quot;get&quot;,&quot;tag&quot;:&quot;=100.0*adr(5:1/4/58@KNX) /254.0+0&quot;,&quot;alias&quot;:&quot;=100.0*alias(lýsing.kveikingar.Hvíld 1 - Loftljós.D3.1 FB Value) /254.0+0&quot;,&quot;plcName&quot;:&quot;&quot;,&quot;type&quot;:&quot;Value&quot;,&quot;param&quot;:&quot;Decimal&quot;,&quot;stringType&quot;:&quot;10;0;Automatic&quot;}">
# %</text>
</g>
<g inkscape:groupmode="layer" id="layer3" style="display:inline;" inkscape:layerlabel="Ljós">
<rect x="318.73136341704526" y="457.7628516743283" transform="matrix(0.9914232422323294 -0.1307511303502608 0.11795784882888916 0.9381942732614372 -101.30695003643099 208.79978126304738)" width="15" style="stroke-linejoin:miter;stroke-dasharray:none;stroke-width:2.0;fill:#c0c0c0;stroke:#000000;stroke-linecap:butt;" inkscape:label="{&quot;attr&quot;:&quot;color&quot;,&quot;list&quot;:[{&quot;data&quot;:&quot;1&quot;,&quot;datamax&quot;:&quot;1&quot;,&quot;param&quot;:&quot;#FFFF00&quot;,&quot;tag&quot;:&quot;1:1/3/92@KNX&quot;,&quot;alias&quot;:&quot;lýsing.kveikingar.Fjölnota rými - Loftljós.FB Swi&quot;,&quot;aliasMin&quot;:&quot;&quot;,&quot;aliasMax&quot;:&quot;&quot;,&quot;plcName&quot;:&quot;&quot;,&quot;type&quot;:&quot;0&quot;},{&quot;data&quot;:&quot;0&quot;,&quot;datamax&quot;:&quot;0&quot;,&quot;param&quot;:&quot;#c0c0c0&quot;,&quot;tag&quot;:&quot;1:1/3/92@KNX&quot;,&quot;alias&quot;:&quot;lýsing.kveikingar.Fjölnota rými - Loftljós.FB Swi&quot;,&quot;aliasMin&quot;:&quot;&quot;,&quot;aliasMax&quot;:&quot;&quot;,&quot;plcName&quot;:&quot;&quot;,&quot;type&quot;:&quot;0&quot;}]}" rx="0" ry="0" id="rect0002" height="65"/>
<rect x="195.6290262927413" y="426.13668549559134" transform="matrix(0.9910796353098676 -0.1332711048348259 0.0873045546151215 0.6724855541344921 -84.82253203342117 353.3678024071743)" width="15" style="stroke-linejoin:miter;stroke-dasharray:none;stroke-width:2.0;fill:#c0c0c0;stroke:#000000;stroke-linecap:butt;" inkscape:label="{&quot;attr&quot;:&quot;color&quot;,&quot;list&quot;:[{&quot;data&quot;:&quot;1&quot;,&quot;datamax&quot;:&quot;1&quot;,&quot;param&quot;:&quot;#FFFF00&quot;,&quot;tag&quot;:&quot;1:1/3/92@KNX&quot;,&quot;alias&quot;:&quot;lýsing.kveikingar.Fjölnota rými - Loftljós.FB Swi&quot;,&quot;aliasMin&quot;:&quot;&quot;,&quot;aliasMax&quot;:&quot;&quot;,&quot;plcName&quot;:&quot;&quot;,&quot;type&quot;:&quot;0&quot;},{&quot;data&quot;:&quot;0&quot;,&quot;datamax&quot;:&quot;0&quot;,&quot;param&quot;:&quot;#c0c0c0&quot;,&quot;tag&quot;:&quot;1:1/3/92@KNX&quot;,&quot;alias&quot;:&quot;lýsing.kveikingar.Fjölnota rými - Loftljós.FB Swi&quot;,&quot;aliasMin&quot;:&quot;&quot;,&quot;aliasMax&quot;:&quot;&quot;,&quot;plcName&quot;:&quot;&quot;,&quot;type&quot;:&quot;0&quot;}]}" rx="0" ry="0" height="65" id="rect0003"/>
<rect x="442.1807390992473" y="474.9673328421129" transform="matrix(0.9914232422323294 -0.1307511303502608 0.11795784882888916 0.9381942732614372 -101.30695003643099 208.79978126304738)" width="15" style="stroke-linejoin:miter;stroke-dasharray:none;stroke-width:2.0;fill:#c0c0c0;stroke:#000000;stroke-linecap:butt;" inkscape:label="{&quot;attr&quot;:&quot;color&quot;,&quot;list&quot;:[{&quot;data&quot;:&quot;1&quot;,&quot;datamax&quot;:&quot;1&quot;,&quot;param&quot;:&quot;#FFFF00&quot;,&quot;tag&quot;:&quot;1:1/3/92@KNX&quot;,&quot;alias&quot;:&quot;lýsing.kveikingar.Fjölnota rými - Loftljós.FB Swi&quot;,&quot;aliasMin&quot;:&quot;&quot;,&quot;aliasMax&quot;:&quot;&quot;,&quot;plcName&quot;:&quot;&quot;,&quot;type&quot;:&quot;0&quot;},{&quot;data&quot;:&quot;0&quot;,&quot;datamax&quot;:&quot;0&quot;,&quot;param&quot;:&quot;#c0c0c0&quot;,&quot;tag&quot;:&quot;1:1/3/92@KNX&quot;,&quot;alias&quot;:&quot;lýsing.kveikingar.Fjölnota rými - Loftljós.FB Swi&quot;,&quot;aliasMin&quot;:&quot;&quot;,&quot;aliasMax&quot;:&quot;&quot;,&quot;plcName&quot;:&quot;&quot;,&quot;type&quot;:&quot;0&quot;}]}" rx="0" ry="0" height="65" id="rect0004"/>
<rect x="569.1609760620682" y="492.6638913174802" transform="matrix(0.9914232422323294 -0.1307511303502608 0.11795784882888916 0.9381942732614372 -101.30695003643099 208.79978126304738)" width="15" style="stroke-linejoin:miter;stroke-dasharray:none;stroke-width:2.0;fill:#c0c0c0;stroke:#000000;stroke-linecap:butt;" inkscape:label="{&quot;attr&quot;:&quot;color&quot;,&quot;list&quot;:[{&quot;data&quot;:&quot;1&quot;,&quot;datamax&quot;:&quot;1&quot;,&quot;param&quot;:&quot;#FFFF00&quot;,&quot;tag&quot;:&quot;1:1/3/92@KNX&quot;,&quot;alias&quot;:&quot;lýsing.kveikingar.Fjölnota rými - Loftljós.FB Swi&quot;,&quot;aliasMin&quot;:&quot;&quot;,&quot;aliasMax&quot;:&quot;&quot;,&quot;plcName&quot;:&quot;&quot;,&quot;type&quot;:&quot;0&quot;},{&quot;data&quot;:&quot;0&quot;,&quot;datamax&quot;:&quot;0&quot;,&quot;param&quot;:&quot;#c0c0c0&quot;,&quot;tag&quot;:&quot;1:1/3/92@KNX&quot;,&quot;alias&quot;:&quot;lýsing.kveikingar.Fjölnota rými - Loftljós.FB Swi&quot;,&quot;aliasMin&quot;:&quot;&quot;,&quot;aliasMax&quot;:&quot;&quot;,&quot;plcName&quot;:&quot;&quot;,&quot;type&quot;:&quot;0&quot;}]}" rx="0" ry="0" height="65" id="rect0005"/>
<rect x="691.7790178254323" y="509.752513910268" transform="matrix(0.9914232422323294 -0.1307511303502608 0.11795784882888916 0.9381942732614372 -101.30695003643099 208.79978126304738)" width="15" style="stroke-linejoin:miter;stroke-dasharray:none;stroke-width:2.0;fill:#c0c0c0;stroke:#000000;stroke-linecap:butt;" inkscape:label="{&quot;attr&quot;:&quot;color&quot;,&quot;list&quot;:[{&quot;data&quot;:&quot;1&quot;,&quot;datamax&quot;:&quot;1&quot;,&quot;param&quot;:&quot;#FFFF00&quot;,&quot;tag&quot;:&quot;1:1/3/92@KNX&quot;,&quot;alias&quot;:&quot;lýsing.kveikingar.Fjölnota rými - Loftljós.FB Swi&quot;,&quot;aliasMin&quot;:&quot;&quot;,&quot;aliasMax&quot;:&quot;&quot;,&quot;plcName&quot;:&quot;&quot;,&quot;type&quot;:&quot;0&quot;},{&quot;data&quot;:&quot;0&quot;,&quot;datamax&quot;:&quot;0&quot;,&quot;param&quot;:&quot;#c0c0c0&quot;,&quot;tag&quot;:&quot;1:1/3/92@KNX&quot;,&quot;alias&quot;:&quot;lýsing.kveikingar.Fjölnota rými - Loftljós.FB Swi&quot;,&quot;aliasMin&quot;:&quot;&quot;,&quot;aliasMax&quot;:&quot;&quot;,&quot;plcName&quot;:&quot;&quot;,&quot;type&quot;:&quot;0&quot;}]}" rx="0" ry="0" height="65" id="rect0006"/>
<rect x="817.1092209979126" y="527.3568229944718" transform="matrix(0.9914232422323294 -0.1307511303502608 0.11795784882888916 0.9381942732614372 -101.30695003643099 208.79978126304738)" width="15" style="stroke-linejoin:miter;stroke-dasharray:none;stroke-width:2.0;fill:#c0c0c0;stroke:#000000;stroke-linecap:butt;" inkscape:label="{&quot;attr&quot;:&quot;color&quot;,&quot;list&quot;:[{&quot;data&quot;:&quot;1&quot;,&quot;datamax&quot;:&quot;1&quot;,&quot;param&quot;:&quot;#FFFF00&quot;,&quot;tag&quot;:&quot;1:1/3/92@KNX&quot;,&quot;alias&quot;:&quot;lýsing.kveikingar.Fjölnota rými - Loftljós.FB Swi&quot;,&quot;aliasMin&quot;:&quot;&quot;,&quot;aliasMax&quot;:&quot;&quot;,&quot;plcName&quot;:&quot;&quot;,&quot;type&quot;:&quot;0&quot;},{&quot;data&quot;:&quot;0&quot;,&quot;datamax&quot;:&quot;0&quot;,&quot;param&quot;:&quot;#c0c0c0&quot;,&quot;tag&quot;:&quot;1:1/3/92@KNX&quot;,&quot;alias&quot;:&quot;lýsing.kveikingar.Fjölnota rými - Loftljós.FB Swi&quot;,&quot;aliasMin&quot;:&quot;&quot;,&quot;aliasMax&quot;:&quot;&quot;,&quot;plcName&quot;:&quot;&quot;,&quot;type&quot;:&quot;0&quot;}]}" rx="0" ry="0" height="65" id="rect0007"/>
<rect x="941.4169391985095" y="544.680926781744" transform="matrix(0.9914232422323294 -0.1307511303502608 0.11795784882888916 0.9381942732614372 -101.30695003643099 208.79978126304738)" width="15" style="stroke-linejoin:miter;stroke-dasharray:none;stroke-width:2.0;fill:#c0c0c0;stroke:#000000;stroke-linecap:butt;" inkscape:label="{&quot;attr&quot;:&quot;color&quot;,&quot;list&quot;:[{&quot;data&quot;:&quot;1&quot;,&quot;datamax&quot;:&quot;1&quot;,&quot;param&quot;:&quot;#FFFF00&quot;,&quot;tag&quot;:&quot;1:1/3/92@KNX&quot;,&quot;alias&quot;:&quot;lýsing.kveikingar.Fjölnota rými - Loftljós.FB Swi&quot;,&quot;aliasMin&quot;:&quot;&quot;,&quot;aliasMax&quot;:&quot;&quot;,&quot;plcName&quot;:&quot;&quot;,&quot;type&quot;:&quot;0&quot;},{&quot;data&quot;:&quot;0&quot;,&quot;datamax&quot;:&quot;0&quot;,&quot;param&quot;:&quot;#c0c0c0&quot;,&quot;tag&quot;:&quot;1:1/3/92@KNX&quot;,&quot;alias&quot;:&quot;lýsing.kveikingar.Fjölnota rými - Loftljós.FB Swi&quot;,&quot;aliasMin&quot;:&quot;&quot;,&quot;aliasMax&quot;:&quot;&quot;,&quot;plcName&quot;:&quot;&quot;,&quot;type&quot;:&quot;0&quot;}]}" rx="0" ry="0" height="65" id="rect0008"/>
<rect x="1066.2985131544378" y="562.0850057854235" transform="matrix(0.9914232422323294 -0.1307511303502608 0.11795784882888916 0.9381942732614372 -101.30695003643099 208.79978126304738)" width="15" style="stroke-linejoin:miter;stroke-dasharray:none;stroke-width:2.0;fill:#c0c0c0;stroke:#000000;stroke-linecap:butt;" inkscape:label="{&quot;attr&quot;:&quot;color&quot;,&quot;list&quot;:[{&quot;data&quot;:&quot;1&quot;,&quot;datamax&quot;:&quot;1&quot;,&quot;param&quot;:&quot;#FFFF00&quot;,&quot;tag&quot;:&quot;1:1/3/92@KNX&quot;,&quot;alias&quot;:&quot;lýsing.kveikingar.Fjölnota rými - Loftljós.FB Swi&quot;,&quot;aliasMin&quot;:&quot;&quot;,&quot;aliasMax&quot;:&quot;&quot;,&quot;plcName&quot;:&quot;&quot;,&quot;type&quot;:&quot;0&quot;},{&quot;data&quot;:&quot;0&quot;,&quot;datamax&quot;:&quot;0&quot;,&quot;param&quot;:&quot;#c0c0c0&quot;,&quot;tag&quot;:&quot;1:1/3/92@KNX&quot;,&quot;alias&quot;:&quot;lýsing.kveikingar.Fjölnota rými - Loftljós.FB Swi&quot;,&quot;aliasMin&quot;:&quot;&quot;,&quot;aliasMax&quot;:&quot;&quot;,&quot;plcName&quot;:&quot;&quot;,&quot;type&quot;:&quot;0&quot;}]}" rx="0" ry="0" height="65" id="rect0009"/>
<rect x="1191.1800871103587" y="579.4890847891028" transform="matrix(0.9914232422323294 -0.1307511303502608 0.11795784882888916 0.9381942732614372 -101.30695003643099 208.79978126304738)" width="15" style="stroke-linejoin:miter;stroke-dasharray:none;stroke-width:2.0;fill:#c0c0c0;stroke:#000000;stroke-linecap:butt;" inkscape:label="{&quot;attr&quot;:&quot;color&quot;,&quot;list&quot;:[{&quot;data&quot;:&quot;1&quot;,&quot;datamax&quot;:&quot;1&quot;,&quot;param&quot;:&quot;#FFFF00&quot;,&quot;tag&quot;:&quot;1:1/3/92@KNX&quot;,&quot;alias&quot;:&quot;lýsing.kveikingar.Fjölnota rými - Loftljós.FB Swi&quot;,&quot;aliasMin&quot;:&quot;&quot;,&quot;aliasMax&quot;:&quot;&quot;,&quot;plcName&quot;:&quot;&quot;,&quot;type&quot;:&quot;0&quot;},{&quot;data&quot;:&quot;0&quot;,&quot;datamax&quot;:&quot;0&quot;,&quot;param&quot;:&quot;#c0c0c0&quot;,&quot;tag&quot;:&quot;1:1/3/92@KNX&quot;,&quot;alias&quot;:&quot;lýsing.kveikingar.Fjölnota rými - Loftljós.FB Swi&quot;,&quot;aliasMin&quot;:&quot;&quot;,&quot;aliasMax&quot;:&quot;&quot;,&quot;plcName&quot;:&quot;&quot;,&quot;type&quot;:&quot;0&quot;}]}" rx="0" ry="0" height="65" id="rect0010"/>
<rect x="1126.9169110532207" y="439.21762749462766" transform="matrix(0.9914232422323294 -0.1307511303502608 0.11795784882888916 0.9381942732614372 -101.30695003643099 208.79978126304738)" width="15" style="stroke-linejoin:miter;stroke-dasharray:none;stroke-width:2.0;fill:#c0c0c0;stroke:#000000;stroke-linecap:butt;" inkscape:label="{&quot;attr&quot;:&quot;color&quot;,&quot;list&quot;:[{&quot;data&quot;:&quot;1&quot;,&quot;datamax&quot;:&quot;1&quot;,&quot;param&quot;:&quot;#FFFF00&quot;,&quot;tag&quot;:&quot;1:1/3/92@KNX&quot;,&quot;alias&quot;:&quot;lýsing.kveikingar.Fjölnota rými - Loftljós.FB Swi&quot;,&quot;aliasMin&quot;:&quot;&quot;,&quot;aliasMax&quot;:&quot;&quot;,&quot;plcName&quot;:&quot;&quot;,&quot;type&quot;:&quot;0&quot;},{&quot;data&quot;:&quot;0&quot;,&quot;datamax&quot;:&quot;0&quot;,&quot;param&quot;:&quot;#c0c0c0&quot;,&quot;tag&quot;:&quot;1:1/3/92@KNX&quot;,&quot;alias&quot;:&quot;lýsing.kveikingar.Fjölnota rými - Loftljós.FB Swi&quot;,&quot;aliasMin&quot;:&quot;&quot;,&quot;aliasMax&quot;:&quot;&quot;,&quot;plcName&quot;:&quot;&quot;,&quot;type&quot;:&quot;0&quot;}]}" rx="0" ry="0" height="65" id="rect0011"/>
<rect x="1001.4428577561486" y="441.1001897801742" transform="matrix(0.9914232422323294 -0.1307511303502608 0.11795784882888916 0.9381942732614372 -101.30695003643099 208.79978126304738)" width="15" style="stroke-linejoin:miter;stroke-dasharray:none;stroke-width:2.0;fill:#c0c0c0;stroke:#000000;stroke-linecap:butt;" inkscape:label="{&quot;attr&quot;:&quot;color&quot;,&quot;list&quot;:[{&quot;data&quot;:&quot;1&quot;,&quot;datamax&quot;:&quot;1&quot;,&quot;param&quot;:&quot;#FFFF00&quot;,&quot;tag&quot;:&quot;1:1/3/92@KNX&quot;,&quot;alias&quot;:&quot;lýsing.kveikingar.Fjölnota rými - Loftljós.FB Swi&quot;,&quot;aliasMin&quot;:&quot;&quot;,&quot;aliasMax&quot;:&quot;&quot;,&quot;plcName&quot;:&quot;&quot;,&quot;type&quot;:&quot;0&quot;},{&quot;data&quot;:&quot;0&quot;,&quot;datamax&quot;:&quot;0&quot;,&quot;param&quot;:&quot;#c0c0c0&quot;,&quot;tag&quot;:&quot;1:1/3/92@KNX&quot;,&quot;alias&quot;:&quot;lýsing.kveikingar.Fjölnota rými - Loftljós.FB Swi&quot;,&quot;aliasMin&quot;:&quot;&quot;,&quot;aliasMax&quot;:&quot;&quot;,&quot;plcName&quot;:&quot;&quot;,&quot;type&quot;:&quot;0&quot;}]}" rx="0" ry="0" height="65" id="rect0012"/>
<rect x="876.044361559648" y="442.3477026043206" transform="matrix(0.9914232422323294 -0.1307511303502608 0.11795784882888916 0.9381942732614372 -101.30695003643099 208.79978126304738)" width="15" style="stroke-linejoin:miter;stroke-dasharray:none;stroke-width:2.0;fill:#c0c0c0;stroke:#000000;stroke-linecap:butt;" inkscape:label="{&quot;attr&quot;:&quot;color&quot;,&quot;list&quot;:[{&quot;data&quot;:&quot;1&quot;,&quot;datamax&quot;:&quot;1&quot;,&quot;param&quot;:&quot;#FFFF00&quot;,&quot;tag&quot;:&quot;1:1/3/92@KNX&quot;,&quot;alias&quot;:&quot;lýsing.kveikingar.Fjölnota rými - Loftljós.FB Swi&quot;,&quot;aliasMin&quot;:&quot;&quot;,&quot;aliasMax&quot;:&quot;&quot;,&quot;plcName&quot;:&quot;&quot;,&quot;type&quot;:&quot;0&quot;},{&quot;data&quot;:&quot;0&quot;,&quot;datamax&quot;:&quot;0&quot;,&quot;param&quot;:&quot;#c0c0c0&quot;,&quot;tag&quot;:&quot;1:1/3/92@KNX&quot;,&quot;alias&quot;:&quot;lýsing.kveikingar.Fjölnota rými - Loftljós.FB Swi&quot;,&quot;aliasMin&quot;:&quot;&quot;,&quot;aliasMax&quot;:&quot;&quot;,&quot;plcName&quot;:&quot;&quot;,&quot;type&quot;:&quot;0&quot;}]}" rx="0" ry="0" height="65" id="rect0013"/>
<rect x="750.5454792205927" y="444.4389503691332" transform="matrix(0.9914232422323294 -0.1307511303502608 0.11795784882888916 0.9381942732614372 -101.30695003643099 208.79978126304738)" width="15" style="stroke-linejoin:miter;stroke-dasharray:none;stroke-width:2.0;fill:#c0c0c0;stroke:#000000;stroke-linecap:butt;" inkscape:label="{&quot;attr&quot;:&quot;color&quot;,&quot;list&quot;:[{&quot;data&quot;:&quot;1&quot;,&quot;datamax&quot;:&quot;1&quot;,&quot;param&quot;:&quot;#FFFF00&quot;,&quot;tag&quot;:&quot;1:1/3/92@KNX&quot;,&quot;alias&quot;:&quot;lýsing.kveikingar.Fjölnota rými - Loftljós.FB Swi&quot;,&quot;aliasMin&quot;:&quot;&quot;,&quot;aliasMax&quot;:&quot;&quot;,&quot;plcName&quot;:&quot;&quot;,&quot;type&quot;:&quot;0&quot;},{&quot;data&quot;:&quot;0&quot;,&quot;datamax&quot;:&quot;0&quot;,&quot;param&quot;:&quot;#c0c0c0&quot;,&quot;tag&quot;:&quot;1:1/3/92@KNX&quot;,&quot;alias&quot;:&quot;lýsing.kveikingar.Fjölnota rými - Loftljós.FB Swi&quot;,&quot;aliasMin&quot;:&quot;&quot;,&quot;aliasMax&quot;:&quot;&quot;,&quot;plcName&quot;:&quot;&quot;,&quot;type&quot;:&quot;0&quot;}]}" rx="0" ry="0" height="65" id="rect0014"/>
<rect x="623.8693085457182" y="447.51933455509993" transform="matrix(0.9914232422323294 -0.1307511303502608 0.11795784882888916 0.9381942732614372 -101.30695003643099 208.79978126304738)" width="15" style="stroke-linejoin:miter;stroke-dasharray:none;stroke-width:2.0;fill:#c0c0c0;stroke:#000000;stroke-linecap:butt;" inkscape:label="{&quot;attr&quot;:&quot;color&quot;,&quot;list&quot;:[{&quot;data&quot;:&quot;1&quot;,&quot;datamax&quot;:&quot;1&quot;,&quot;param&quot;:&quot;#FFFF00&quot;,&quot;tag&quot;:&quot;1:1/3/92@KNX&quot;,&quot;alias&quot;:&quot;lýsing.kveikingar.Fjölnota rými - Loftljós.FB Swi&quot;,&quot;aliasMin&quot;:&quot;&quot;,&quot;aliasMax&quot;:&quot;&quot;,&quot;plcName&quot;:&quot;&quot;,&quot;type&quot;:&quot;0&quot;},{&quot;data&quot;:&quot;0&quot;,&quot;datamax&quot;:&quot;0&quot;,&quot;param&quot;:&quot;#c0c0c0&quot;,&quot;tag&quot;:&quot;1:1/3/92@KNX&quot;,&quot;alias&quot;:&quot;lýsing.kveikingar.Fjölnota rými - Loftljós.FB Swi&quot;,&quot;aliasMin&quot;:&quot;&quot;,&quot;aliasMax&quot;:&quot;&quot;,&quot;plcName&quot;:&quot;&quot;,&quot;type&quot;:&quot;0&quot;}]}" rx="0" ry="0" height="65" id="rect0015"/>
<rect x="1251.6517683715756" y="439.40707099447786" transform="matrix(0.9914232422323294 -0.1307511303502608 0.11795784882888916 0.9381942732614372 -101.30695003643099 208.79978126304738)" width="15" style="stroke-linejoin:miter;stroke-dasharray:none;stroke-width:2.0;fill:#c0c0c0;stroke:#000000;stroke-linecap:butt;" inkscape:label="{&quot;attr&quot;:&quot;color&quot;,&quot;list&quot;:[{&quot;data&quot;:&quot;1&quot;,&quot;datamax&quot;:&quot;1&quot;,&quot;param&quot;:&quot;#FFFF00&quot;,&quot;tag&quot;:&quot;1:1/3/92@KNX&quot;,&quot;alias&quot;:&quot;lýsing.kveikingar.Fjölnota rými - Loftljós.FB Swi&quot;,&quot;aliasMin&quot;:&quot;&quot;,&quot;aliasMax&quot;:&quot;&quot;,&quot;plcName&quot;:&quot;&quot;,&quot;type&quot;:&quot;0&quot;},{&quot;data&quot;:&quot;0&quot;,&quot;datamax&quot;:&quot;0&quot;,&quot;param&quot;:&quot;#c0c0c0&quot;,&quot;tag&quot;:&quot;1:1/3/92@KNX&quot;,&quot;alias&quot;:&quot;lýsing.kveikingar.Fjölnota rými - Loftljós.FB Swi&quot;,&quot;aliasMin&quot;:&quot;&quot;,&quot;aliasMax&quot;:&quot;&quot;,&quot;plcName&quot;:&quot;&quot;,&quot;type&quot;:&quot;0&quot;}]}" rx="0" ry="0" id="rect0016" height="65"/>
<path id="path0002" d="M1590.2945556640625 671.8441162109375L1606.7290857442908 773.5482311515307" style="stroke-linejoin:miter;stroke-dasharray:none;stroke-width:3.0;fill:#c0c0c0;stroke:#000000;stroke-linecap:butt;" transform="matrix(0.799525260925293 0 0 0.799525260925293 99.33866119384766 -29.853532791137695)"/>
<rect x="1320.2902175469942" y="599.2496613963617" transform="matrix(0.9914232422323294 -0.1307511303502608 0.11795784882888916 0.9381942732614372 -101.30695003643099 208.79978126304738)" width="15" style="stroke-linejoin:miter;stroke-dasharray:none;stroke-width:2.0;fill:#c0c0c0;stroke:#000000;stroke-linecap:butt;" inkscape:label="{&quot;attr&quot;:&quot;color&quot;,&quot;list&quot;:[{&quot;data&quot;:&quot;1&quot;,&quot;datamax&quot;:&quot;1&quot;,&quot;param&quot;:&quot;#FFFF00&quot;,&quot;tag&quot;:&quot;1:1/3/92@KNX&quot;,&quot;alias&quot;:&quot;lýsing.kveikingar.Fjölnota rými - Loftljós.FB Swi&quot;,&quot;aliasMin&quot;:&quot;&quot;,&quot;aliasMax&quot;:&quot;&quot;,&quot;plcName&quot;:&quot;&quot;,&quot;type&quot;:&quot;0&quot;},{&quot;data&quot;:&quot;0&quot;,&quot;datamax&quot;:&quot;0&quot;,&quot;param&quot;:&quot;#c0c0c0&quot;,&quot;tag&quot;:&quot;1:1/3/92@KNX&quot;,&quot;alias&quot;:&quot;lýsing.kveikingar.Fjölnota rými - Loftljós.FB Swi&quot;,&quot;aliasMin&quot;:&quot;&quot;,&quot;aliasMax&quot;:&quot;&quot;,&quot;plcName&quot;:&quot;&quot;,&quot;type&quot;:&quot;0&quot;}]}" rx="0" ry="0" id="rect0017" height="65"/>
<rect x="1441.464320992482" y="616.1370500059068" transform="matrix(0.9914232422323294 -0.1307511303502608 0.11795784882888916 0.9381942732614372 -101.30695003643099 208.79978126304738)" width="15" style="stroke-linejoin:miter;stroke-dasharray:none;stroke-width:2.0;fill:#c0c0c0;stroke:#000000;stroke-linecap:butt;" inkscape:label="{&quot;attr&quot;:&quot;color&quot;,&quot;list&quot;:[{&quot;data&quot;:&quot;1&quot;,&quot;datamax&quot;:&quot;1&quot;,&quot;param&quot;:&quot;#FFFF00&quot;,&quot;tag&quot;:&quot;1:1/3/92@KNX&quot;,&quot;alias&quot;:&quot;lýsing.kveikingar.Fjölnota rými - Loftljós.FB Swi&quot;,&quot;aliasMin&quot;:&quot;&quot;,&quot;aliasMax&quot;:&quot;&quot;,&quot;plcName&quot;:&quot;&quot;,&quot;type&quot;:&quot;0&quot;},{&quot;data&quot;:&quot;0&quot;,&quot;datamax&quot;:&quot;0&quot;,&quot;param&quot;:&quot;#c0c0c0&quot;,&quot;tag&quot;:&quot;1:1/3/92@KNX&quot;,&quot;alias&quot;:&quot;lýsing.kveikingar.Fjölnota rými - Loftljós.FB Swi&quot;,&quot;aliasMin&quot;:&quot;&quot;,&quot;aliasMax&quot;:&quot;&quot;,&quot;plcName&quot;:&quot;&quot;,&quot;type&quot;:&quot;0&quot;}]}" rx="0" ry="0" id="rect0018" height="65"/>
<rect x="1540.2078666051984" y="629.8984113861991" transform="matrix(0.9914232422323294 -0.1307511303502608 0.11795784882888916 0.9381942732614372 -101.30695003643099 208.79978126304738)" width="15" style="stroke-linejoin:miter;stroke-dasharray:none;stroke-width:2.0;fill:#c0c0c0;stroke:#000000;stroke-linecap:butt;" inkscape:label="{&quot;attr&quot;:&quot;color&quot;,&quot;list&quot;:[{&quot;data&quot;:&quot;1&quot;,&quot;datamax&quot;:&quot;1&quot;,&quot;param&quot;:&quot;#FFFF00&quot;,&quot;tag&quot;:&quot;1:1/3/92@KNX&quot;,&quot;alias&quot;:&quot;lýsing.kveikingar.Fjölnota rými - Loftljós.FB Swi&quot;,&quot;aliasMin&quot;:&quot;&quot;,&quot;aliasMax&quot;:&quot;&quot;,&quot;plcName&quot;:&quot;&quot;,&quot;type&quot;:&quot;0&quot;},{&quot;data&quot;:&quot;0&quot;,&quot;datamax&quot;:&quot;0&quot;,&quot;param&quot;:&quot;#c0c0c0&quot;,&quot;tag&quot;:&quot;1:1/3/92@KNX&quot;,&quot;alias&quot;:&quot;lýsing.kveikingar.Fjölnota rými - Loftljós.FB Swi&quot;,&quot;aliasMin&quot;:&quot;&quot;,&quot;aliasMax&quot;:&quot;&quot;,&quot;plcName&quot;:&quot;&quot;,&quot;type&quot;:&quot;0&quot;}]}" rx="0" ry="0" id="rect0019" height="65"/>
<rect x="1636.978408996886" y="643.3848058290521" transform="matrix(0.9914232422323294 -0.1307511303502608 0.11795784882888916 0.9381942732614372 -101.30695003643099 208.79978126304738)" width="15" style="stroke-linejoin:miter;stroke-dasharray:none;stroke-width:2.0;fill:#c0c0c0;stroke:#000000;stroke-linecap:butt;" inkscape:label="{&quot;attr&quot;:&quot;color&quot;,&quot;list&quot;:[{&quot;data&quot;:&quot;1&quot;,&quot;datamax&quot;:&quot;1&quot;,&quot;param&quot;:&quot;#FFFF00&quot;,&quot;tag&quot;:&quot;1:1/3/92@KNX&quot;,&quot;alias&quot;:&quot;lýsing.kveikingar.Fjölnota rými - Loftljós.FB Swi&quot;,&quot;aliasMin&quot;:&quot;&quot;,&quot;aliasMax&quot;:&quot;&quot;,&quot;plcName&quot;:&quot;&quot;,&quot;type&quot;:&quot;0&quot;},{&quot;data&quot;:&quot;0&quot;,&quot;datamax&quot;:&quot;0&quot;,&quot;param&quot;:&quot;#c0c0c0&quot;,&quot;tag&quot;:&quot;1:1/3/92@KNX&quot;,&quot;alias&quot;:&quot;lýsing.kveikingar.Fjölnota rými - Loftljós.FB Swi&quot;,&quot;aliasMin&quot;:&quot;&quot;,&quot;aliasMax&quot;:&quot;&quot;,&quot;plcName&quot;:&quot;&quot;,&quot;type&quot;:&quot;0&quot;}]}" rx="0" ry="0" id="rect0020" height="65"/>
<rect x="1736.635234190708" y="657.2734461142979" transform="matrix(0.9914232422323294 -0.1307511303502608 0.11795784882888916 0.9381942732614372 -101.30695003643099 208.79978126304738)" width="15" style="stroke-linejoin:miter;stroke-dasharray:none;stroke-width:2.0;fill:#c0c0c0;stroke:#000000;stroke-linecap:butt;" inkscape:label="{&quot;attr&quot;:&quot;color&quot;,&quot;list&quot;:[{&quot;data&quot;:&quot;1&quot;,&quot;datamax&quot;:&quot;1&quot;,&quot;param&quot;:&quot;#FFFF00&quot;,&quot;tag&quot;:&quot;1:1/3/92@KNX&quot;,&quot;alias&quot;:&quot;lýsing.kveikingar.Fjölnota rými - Loftljós.FB Swi&quot;,&quot;aliasMin&quot;:&quot;&quot;,&quot;aliasMax&quot;:&quot;&quot;,&quot;plcName&quot;:&quot;&quot;,&quot;type&quot;:&quot;0&quot;},{&quot;data&quot;:&quot;0&quot;,&quot;datamax&quot;:&quot;0&quot;,&quot;param&quot;:&quot;#c0c0c0&quot;,&quot;tag&quot;:&quot;1:1/3/92@KNX&quot;,&quot;alias&quot;:&quot;lýsing.kveikingar.Fjölnota rými - Loftljós.FB Swi&quot;,&quot;aliasMin&quot;:&quot;&quot;,&quot;aliasMax&quot;:&quot;&quot;,&quot;plcName&quot;:&quot;&quot;,&quot;type&quot;:&quot;0&quot;}]}" rx="0" ry="0" id="rect0021" height="65"/>
<rect x="1381.014185423601" y="440.3784597175986" transform="matrix(0.9914232422323294 -0.1307511303502608 0.11795784882888916 0.9381942732614372 -101.30695003643099 208.79978126304738)" width="15" style="stroke-linejoin:miter;stroke-dasharray:none;stroke-width:2.0;fill:#c0c0c0;stroke:#000000;stroke-linecap:butt;" inkscape:label="{&quot;attr&quot;:&quot;color&quot;,&quot;list&quot;:[{&quot;data&quot;:&quot;1&quot;,&quot;datamax&quot;:&quot;1&quot;,&quot;param&quot;:&quot;#FFFF00&quot;,&quot;tag&quot;:&quot;1:1/3/92@KNX&quot;,&quot;alias&quot;:&quot;lýsing.kveikingar.Fjölnota rými - Loftljós.FB Swi&quot;,&quot;aliasMin&quot;:&quot;&quot;,&quot;aliasMax&quot;:&quot;&quot;,&quot;plcName&quot;:&quot;&quot;,&quot;type&quot;:&quot;0&quot;},{&quot;data&quot;:&quot;0&quot;,&quot;datamax&quot;:&quot;0&quot;,&quot;param&quot;:&quot;#c0c0c0&quot;,&quot;tag&quot;:&quot;1:1/3/92@KNX&quot;,&quot;alias&quot;:&quot;lýsing.kveikingar.Fjölnota rými - Loftljós.FB Swi&quot;,&quot;aliasMin&quot;:&quot;&quot;,&quot;aliasMax&quot;:&quot;&quot;,&quot;plcName&quot;:&quot;&quot;,&quot;type&quot;:&quot;0&quot;}]}" rx="0" ry="0" id="rect0022" height="65"/>
<rect x="1513.569969219837" y="436.3793186174279" transform="matrix(0.9914232422323294 -0.1307511303502608 0.11795784882888916 0.9381942732614372 -101.30695003643099 208.79978126304738)" width="15" style="stroke-linejoin:miter;stroke-dasharray:none;stroke-width:2.0;fill:#c0c0c0;stroke:#000000;stroke-linecap:butt;" inkscape:label="{&quot;attr&quot;:&quot;color&quot;,&quot;list&quot;:[{&quot;data&quot;:&quot;1&quot;,&quot;datamax&quot;:&quot;1&quot;,&quot;param&quot;:&quot;#FFFF00&quot;,&quot;tag&quot;:&quot;1:1/3/92@KNX&quot;,&quot;alias&quot;:&quot;lýsing.kveikingar.Fjölnota rými - Loftljós.FB Swi&quot;,&quot;aliasMin&quot;:&quot;&quot;,&quot;aliasMax&quot;:&quot;&quot;,&quot;plcName&quot;:&quot;&quot;,&quot;type&quot;:&quot;0&quot;},{&quot;data&quot;:&quot;0&quot;,&quot;datamax&quot;:&quot;0&quot;,&quot;param&quot;:&quot;#c0c0c0&quot;,&quot;tag&quot;:&quot;1:1/3/92@KNX&quot;,&quot;alias&quot;:&quot;lýsing.kveikingar.Fjölnota rými - Loftljós.FB Swi&quot;,&quot;aliasMin&quot;:&quot;&quot;,&quot;aliasMax&quot;:&quot;&quot;,&quot;plcName&quot;:&quot;&quot;,&quot;type&quot;:&quot;0&quot;}]}" rx="0" ry="0" id="rect0023" height="65"/>
<rect x="1641.197865465203" y="434.91334890997564" transform="matrix(0.9914232422323294 -0.1307511303502608 0.11795784882888916 0.9381942732614372 -101.30695003643099 208.79978126304738)" width="15" style="stroke-linejoin:miter;stroke-dasharray:none;stroke-width:2.0;fill:#c0c0c0;stroke:#000000;stroke-linecap:butt;" inkscape:label="{&quot;attr&quot;:&quot;color&quot;,&quot;list&quot;:[{&quot;data&quot;:&quot;1&quot;,&quot;datamax&quot;:&quot;1&quot;,&quot;param&quot;:&quot;#FFFF00&quot;,&quot;tag&quot;:&quot;1:1/3/92@KNX&quot;,&quot;alias&quot;:&quot;lýsing.kveikingar.Fjölnota rými - Loftljós.FB Swi&quot;,&quot;aliasMin&quot;:&quot;&quot;,&quot;aliasMax&quot;:&quot;&quot;,&quot;plcName&quot;:&quot;&quot;,&quot;type&quot;:&quot;0&quot;},{&quot;data&quot;:&quot;0&quot;,&quot;datamax&quot;:&quot;0&quot;,&quot;param&quot;:&quot;#c0c0c0&quot;,&quot;tag&quot;:&quot;1:1/3/92@KNX&quot;,&quot;alias&quot;:&quot;lýsing.kveikingar.Fjölnota rými - Loftljós.FB Swi&quot;,&quot;aliasMin&quot;:&quot;&quot;,&quot;aliasMax&quot;:&quot;&quot;,&quot;plcName&quot;:&quot;&quot;,&quot;type&quot;:&quot;0&quot;}]}" rx="0" ry="0" id="rect0024" height="65"/>
<ellipse style="stroke-linejoin:miter;stroke-dasharray:none;stroke-width:2.0;fill:#c0c0c0;stroke:#000000;stroke-linecap:butt;" inkscape:label="{&quot;attr&quot;:&quot;color&quot;,&quot;list&quot;:[{&quot;data&quot;:&quot;1&quot;,&quot;datamax&quot;:&quot;1&quot;,&quot;param&quot;:&quot;#FFFF00&quot;,&quot;tag&quot;:&quot;1:1/3/58@KNX&quot;,&quot;alias&quot;:&quot;lýsing.kveikingar.Hvíld 1 - Loftljós.D3.1 FB Swi&quot;,&quot;aliasMin&quot;:&quot;&quot;,&quot;aliasMax&quot;:&quot;&quot;,&quot;plcName&quot;:&quot;&quot;,&quot;type&quot;:&quot;0&quot;},{&quot;data&quot;:&quot;0&quot;,&quot;datamax&quot;:&quot;0&quot;,&quot;param&quot;:&quot;#c0c0c0&quot;,&quot;tag&quot;:&quot;1:1/3/58@KNX&quot;,&quot;alias&quot;:&quot;lýsing.kveikingar.Hvíld 1 - Loftljós.D3.1 FB Swi&quot;,&quot;aliasMin&quot;:&quot;&quot;,&quot;aliasMax&quot;:&quot;&quot;,&quot;plcName&quot;:&quot;&quot;,&quot;type&quot;:&quot;0&quot;}]}" rx="8.57828635221881" cx="1605.5160077036442" id="ellipse0001" ry="8.578286352218782" cy="510.02045986397025"/>
<ellipse style="stroke-linejoin:miter;stroke-dasharray:none;stroke-width:2.0;fill:#c0c0c0;stroke:#000000;stroke-linecap:butt;" inkscape:label="{&quot;attr&quot;:&quot;color&quot;,&quot;list&quot;:[{&quot;data&quot;:&quot;1&quot;,&quot;datamax&quot;:&quot;1&quot;,&quot;param&quot;:&quot;#FFFF00&quot;,&quot;tag&quot;:&quot;1:1/3/58@KNX&quot;,&quot;alias&quot;:&quot;lýsing.kveikingar.Hvíld 1 - Loftljós.D3.1 FB Swi&quot;,&quot;aliasMin&quot;:&quot;&quot;,&quot;aliasMax&quot;:&quot;&quot;,&quot;plcName&quot;:&quot;&quot;,&quot;type&quot;:&quot;0&quot;},{&quot;data&quot;:&quot;0&quot;,&quot;datamax&quot;:&quot;0&quot;,&quot;param&quot;:&quot;#c0c0c0&quot;,&quot;tag&quot;:&quot;1:1/3/58@KNX&quot;,&quot;alias&quot;:&quot;lýsing.kveikingar.Hvíld 1 - Loftljós.D3.1 FB Swi&quot;,&quot;aliasMin&quot;:&quot;&quot;,&quot;aliasMax&quot;:&quot;&quot;,&quot;plcName&quot;:&quot;&quot;,&quot;type&quot;:&quot;0&quot;}]}" rx="8.57828635221881" cx="1681.9266907698159" id="ellipse0002" ry="8.578286352218782" cy="499.2877781990753"/>
<rect x="1508.5352843320497" y="623.2961595459057" transform="matrix(0.13462194150987267 0.9908970344410727 -0.9908970344410727 0.13462194150987267 2031.0264348078863 -1036.617169718799)" width="6.000000000000114" style="stroke-linejoin:miter;stroke-dasharray:none;stroke-width:2.0;fill:#c0c0c0;stroke:#000000;stroke-linecap:butt;" inkscape:label="{&quot;attr&quot;:&quot;color&quot;,&quot;list&quot;:[{&quot;data&quot;:&quot;1&quot;,&quot;datamax&quot;:&quot;1&quot;,&quot;param&quot;:&quot;#FFFF00&quot;,&quot;tag&quot;:&quot;1:1/3/52@KNX&quot;,&quot;alias&quot;:&quot;lýsing.kveikingar.Snyrtingar - Speglaljós.D3.9 FB Swi&quot;,&quot;aliasMin&quot;:&quot;&quot;,&quot;aliasMax&quot;:&quot;&quot;,&quot;plcName&quot;:&quot;&quot;,&quot;type&quot;:&quot;0&quot;},{&quot;data&quot;:&quot;0&quot;,&quot;datamax&quot;:&quot;0&quot;,&quot;param&quot;:&quot;#c0c0c0&quot;,&quot;tag&quot;:&quot;1:1/3/52@KNX&quot;,&quot;alias&quot;:&quot;lýsing.kveikingar.Snyrtingar - Speglaljós.D3.9 FB Swi&quot;,&quot;aliasMin&quot;:&quot;&quot;,&quot;aliasMax&quot;:&quot;&quot;,&quot;plcName&quot;:&quot;&quot;,&quot;type&quot;:&quot;0&quot;}]}" rx="0" ry="0" id="rect0025" height="35"/>
<text x="378.81059470264853" y="521.7391304347824" id="text0001" style="font-weight:normal;font-size:12pt;font-family:&apos;Arial&apos;;font-style:normal;fill:#000000;stroke:none;" transform="matrix(1.1159878969192505 0 0 1.1159878969192505 660.9441528320312 -10.677850723266602)">
Fjölnota rými</text>
<text x="378.81059470264853" y="521.7391304347824" id="text0002" style="font-weight:normal;font-size:12pt;font-family:&apos;Arial&apos;;font-style:normal;fill:#000000;stroke:none;" transform="matrix(1.1159878969192505 0 0 1.1159878969192505 996.9884033203125 -33.955909729003906)">
Lyfta</text>
<text x="378.81059470264853" y="521.7391304347824" id="text0003" style="font-weight:normal;font-size:12pt;font-family:&apos;Arial&apos;;font-style:normal;fill:#000000;stroke:none;" transform="matrix(1.1159878969192505 0 0 1.1159878969192505 1187.0665283203125 -48.00081253051758)">
Baðherbergi</text>
<ellipse style="stroke-linejoin:miter;stroke-dasharray:none;stroke-width:1;fill:#c0c0c0;opacity:0.5;stroke:#c0c0c0;stroke-linecap:butt;" inkscape:label="{&quot;attr&quot;:&quot;color&quot;,&quot;list&quot;:[{&quot;data&quot;:&quot;1&quot;,&quot;datamax&quot;:&quot;1&quot;,&quot;param&quot;:&quot;#008000&quot;,&quot;tag&quot;:&quot;1:1/3/44@KNX&quot;,&quot;alias&quot;:&quot;lýsing.kveikingar.Hvíld 1 - Loftljós.D4.4 FB Swi&quot;,&quot;aliasMin&quot;:&quot;&quot;,&quot;aliasMax&quot;:&quot;&quot;,&quot;plcName&quot;:&quot;&quot;,&quot;type&quot;:&quot;0&quot;},{&quot;data&quot;:&quot;0&quot;,&quot;datamax&quot;:&quot;0&quot;,&quot;param&quot;:&quot;#c0c0c0&quot;,&quot;tag&quot;:&quot;1:1/3/44@KNX&quot;,&quot;alias&quot;:&quot;lýsing.kveikingar.Hvíld 1 - Loftljós.D4.4 FB Swi&quot;,&quot;aliasMin&quot;:&quot;&quot;,&quot;aliasMax&quot;:&quot;&quot;,&quot;plcName&quot;:&quot;&quot;,&quot;type&quot;:&quot;0&quot;}]}" rx="5.777954706298658" cx="1581.02810118087" id="ellipse0015" ry="5.777954706298658" cy="788.4009350324966"/>
<g inkscape:label="{&quot;attr&quot;:&quot;setlist&quot;,&quot;listClick&quot;:[{&quot;attr&quot;:&quot;set&quot;,&quot;tag&quot;:&quot;5:1/2/44@KNX&quot;,&quot;alias&quot;:&quot;lýsing.kveikingar.Hvíld 1 - Loftljós.D4.4 Value&quot;,&quot;plcName&quot;:&quot;&quot;,&quot;prompt&quot;:&quot;&quot;,&quot;src&quot;:&quot;&quot;,&quot;type&quot;:&quot;=254*x/100.0+0&quot;,&quot;memory&quot;:&quot;NO&quot;,&quot;logging&quot;:&quot;NO&quot;,&quot;loggingText&quot;:&quot;&quot;,&quot;stringType&quot;:&quot;10;0;Automatic&quot;,&quot;lockEnable&quot;:&quot;NO&quot;,&quot;title&quot;:&quot;loftljós hvíld 1 - birtugildi&quot;,&quot;batchID&quot;:1,&quot;data&quot;:{&quot;mainType&quot;:&quot;tag&quot;,&quot;setType&quot;:&quot;numeric&quot;,&quot;valueMin&quot;:&quot;0&quot;,&quot;aliasMin&quot;:&quot;&quot;,&quot;valueMax&quot;:&quot;100&quot;,&quot;aliasMax&quot;:&quot;&quot;,&quot;valueDec&quot;:&quot;0&quot;,&quot;valueType&quot;:&quot;dec&quot;,&quot;isPassword&quot;:false,&quot;connection&quot;:&quot;KNX&quot;}}],&quot;listDown&quot;:[],&quot;listUp&quot;:[]}" id="g0004">
<rect x="1605.8459967982405" y="777.0949157732991" width="55.06050955414014" style="fill:#c0c0c0;stroke:#000000; stroke-width:1;stroke-dasharray:none;stroke-linecap:butt;stroke-linejoin:miter;" rx="0" ry="0" height="22.432059447983193" id="rect0040"/>
<text x="314.72859164897375" y="815.7112526539277" id="text0007" style="font-weight:normal;font-size:9pt;font-family:&apos;Tahoma&apos;;font-style:normal;fill:#000000;stroke:none;" transform="matrix(1 0 0 1 1295.8712170086592 -23.66161154132692)">
Birtugildi</text>
</g>
<ellipse style="stroke-linejoin:miter;stroke-dasharray:none;stroke-width:1;fill:#c0c0c0;opacity:0.5;stroke:#c0c0c0;stroke-linecap:butt;" inkscape:label="{&quot;attr&quot;:&quot;color&quot;,&quot;list&quot;:[{&quot;data&quot;:&quot;1&quot;,&quot;datamax&quot;:&quot;1&quot;,&quot;param&quot;:&quot;#FF0000&quot;,&quot;tag&quot;:&quot;1:1/3/44@KNX&quot;,&quot;alias&quot;:&quot;lýsing.kveikingar.Hvíld 1 - Loftljós.D4.4 FB Swi&quot;,&quot;aliasMin&quot;:&quot;&quot;,&quot;aliasMax&quot;:&quot;&quot;,&quot;plcName&quot;:&quot;&quot;,&quot;type&quot;:&quot;0&quot;},{&quot;data&quot;:&quot;0&quot;,&quot;datamax&quot;:&quot;0&quot;,&quot;param&quot;:&quot;#c0c0c0&quot;,&quot;tag&quot;:&quot;1:1/3/44@KNX&quot;,&quot;alias&quot;:&quot;lýsing.kveikingar.Hvíld 1 - Loftljós.D4.4 FB Swi&quot;,&quot;aliasMin&quot;:&quot;&quot;,&quot;aliasMax&quot;:&quot;&quot;,&quot;plcName&quot;:&quot;&quot;,&quot;type&quot;:&quot;0&quot;}]}" rx="5.777954706298658" cx="1686.9381531047482" id="ellipse0016" ry="5.777954706298658" cy="788.4009350324964"/>
<g inkscape:label="{&quot;attr&quot;:&quot;open&quot;,&quot;command&quot;:&quot;&quot;,&quot;newWindow&quot;:&quot;&quot;,&quot;target&quot;:&quot;-1&quot;,&quot;lockEnable&quot;:&quot;No&quot;,&quot;openData&quot;:{&quot;type&quot;:&quot;win&quot;,&quot;screen&quot;:&quot;2.Hæð&quot;,&quot;target&quot;:-1,&quot;lockEnable&quot;:false,&quot;textScale&quot;:100,&quot;zoom&quot;:&quot;automatic&quot;},&quot;modal&quot;:false,&quot;topBar&quot;:false,&quot;closeButton&quot;:false,&quot;resize&quot;:false,&quot;titleColor&quot;:&quot;#1C648C&quot;,&quot;textColor&quot;:&quot;#FFFFFF&quot;,&quot;title&quot;:&quot;&quot;,&quot;titleTrans&quot;:{}}" id="g0005">
<rect x="49.99999841145578" width="134.61344055140728" height="39.721998851235185" y="909.9999834528469" id="rect0043" style="fill:#c0c0c0;stroke:#000000; stroke-width:1;stroke-dasharray:none;stroke-linecap:butt;stroke-linejoin:miter;"/>
<text x="173.23205054566347" y="1036.0821367030444" id="text0008" style="font-weight:normal;font-size:16pt;font-family:&apos;Arial&apos;;font-style:normal;fill:#000000;stroke:none;" transform="matrix(1 0 0 1 -89.51571655273438 -98.81621551513672)">
Til baka</text>
</g>
<text x="1131.816082508045" y="758.3077530971793" id="text0042" style="font-weight:normal;font-size:6pt;font-family:&apos;Arial&apos;;font-style:normal;fill:#000000;stroke:none;" transform="matrix(1 0 0 1 415.0206759755633 25.20100975036621)">
Bað</text>
<text x="1131.816082508045" y="758.3077530971793" id="text0044" style="font-weight:normal;font-size:6pt;font-family:&apos;Arial&apos;;font-style:normal;fill:#000000;stroke:none;" transform="matrix(1 0 0 1 409.965576171875 45.86621825051091)">
Kveikja</text>
<text x="1131.816082508045" y="758.3077530971793" id="text0045" style="font-weight:normal;font-size:6pt;font-family:&apos;Arial&apos;;font-style:normal;fill:#000000;stroke:none;" transform="matrix(1 0 0 1 573.2205810546875 25.16457207846858)">
Bað</text>
<text x="1131.816082508045" y="758.3077530971793" id="text0046" style="font-weight:normal;font-size:6pt;font-family:&apos;Arial&apos;;font-style:normal;fill:#000000;stroke:none;" transform="matrix(1 0 0 1 566.8638149912335 45.82978057861328)">
Slökkva</text>
<ellipse style="stroke-linejoin:miter;stroke-dasharray:none;stroke-width:1;fill:#c0c0c0;opacity:0.5;stroke:#c0c0c0;stroke-linecap:butt;" inkscape:label="{&quot;attr&quot;:&quot;color&quot;,&quot;list&quot;:[{&quot;data&quot;:&quot;1&quot;,&quot;datamax&quot;:&quot;1&quot;,&quot;param&quot;:&quot;#008000&quot;,&quot;tag&quot;:&quot;1:1/3/4@KNX&quot;,&quot;alias&quot;:&quot;lýsing.kveikingar.Leiksalur -  Ljós L8 í lofti austur.D7.3 FB Swi&quot;,&quot;aliasMin&quot;:&quot;&quot;,&quot;aliasMax&quot;:&quot;&quot;,&quot;plcName&quot;:&quot;&quot;,&quot;type&quot;:&quot;0&quot;},{&quot;data&quot;:&quot;0&quot;,&quot;datamax&quot;:&quot;0&quot;,&quot;param&quot;:&quot;#c0c0c0&quot;,&quot;tag&quot;:&quot;1:1/3/4@KNX&quot;,&quot;alias&quot;:&quot;lýsing.kveikingar.Leiksalur -  Ljós L8 í lofti austur.D7.3 FB Swi&quot;,&quot;aliasMin&quot;:&quot;&quot;,&quot;aliasMax&quot;:&quot;&quot;,&quot;plcName&quot;:&quot;&quot;,&quot;type&quot;:&quot;0&quot;}]}" rx="5.777954706298658" cx="157.94807284709006" id="ellipse0003" ry="5.777954706298658" cy="182.86824532896557"/>
<ellipse style="stroke-linejoin:miter;stroke-dasharray:none;stroke-width:1;fill:#c0c0c0;opacity:0.5;stroke:#c0c0c0;stroke-linecap:butt;" inkscape:label="{&quot;attr&quot;:&quot;color&quot;,&quot;list&quot;:[{&quot;data&quot;:&quot;0&quot;,&quot;datamax&quot;:&quot;0&quot;,&quot;param&quot;:&quot;#FF0000&quot;,&quot;tag&quot;:&quot;1:1/3/4@KNX&quot;,&quot;alias&quot;:&quot;lýsing.kveikingar.Leiksalur -  Ljós L8 í lofti austur.D7.3 FB Swi&quot;,&quot;aliasMin&quot;:&quot;&quot;,&quot;aliasMax&quot;:&quot;&quot;,&quot;plcName&quot;:&quot;&quot;,&quot;type&quot;:&quot;0&quot;},{&quot;data&quot;:&quot;1&quot;,&quot;datamax&quot;:&quot;1&quot;,&quot;param&quot;:&quot;#c0c0c0&quot;,&quot;tag&quot;:&quot;1:1/3/4@KNX&quot;,&quot;alias&quot;:&quot;lýsing.kveikingar.Leiksalur -  Ljós L8 í lofti austur.D7.3 FB Swi&quot;,&quot;aliasMin&quot;:&quot;&quot;,&quot;aliasMax&quot;:&quot;&quot;,&quot;plcName&quot;:&quot;&quot;,&quot;type&quot;:&quot;0&quot;}]}" rx="5.777954706298658" cx="263.858124770968" id="ellipse0004" ry="5.777954706298658" cy="182.86824532896557"/>
<ellipse rx="5.777954706298658" ry="5.777954706298658" id="ellipse0005" style="stroke-linejoin:miter;stroke-dasharray:none;stroke-width:1;fill:#c0c0c0;opacity:0.5;stroke:#c0c0c0;stroke-linecap:butt;" cx="158.36417796135513" cy="374.3864486699819"/>
<ellipse rx="5.777954706298658" ry="5.777954706298658" id="ellipse0006" style="stroke-linejoin:miter;stroke-dasharray:none;stroke-width:1;fill:#c0c0c0;opacity:0.5;stroke:#c0c0c0;stroke-linecap:butt;" cx="264.27422988523307" cy="374.3864486699819"/>
<ellipse rx="5.777954706298658" ry="5.777954706298658" id="ellipse0007" style="stroke-linejoin:miter;stroke-dasharray:none;stroke-width:1;fill:#c0c0c0;opacity:0.5;stroke:#c0c0c0;stroke-linecap:butt;" cx="158.36417796135513" cy="437.40037913390455"/>
<ellipse rx="5.777954706298658" ry="5.777954706298658" id="ellipse0008" style="stroke-linejoin:miter;stroke-dasharray:none;stroke-width:1;fill:#c0c0c0;opacity:0.5;stroke:#c0c0c0;stroke-linecap:butt;" cx="264.27422988523307" cy="437.40037913390455"/>
<ellipse rx="5.777954706298658" ry="5.777954706298658" id="ellipse0009" style="stroke-linejoin:miter;stroke-dasharray:none;stroke-width:1;fill:#c0c0c0;opacity:0.5;stroke:#c0c0c0;stroke-linecap:butt;" cx="158.36417796135513" cy="501.690620564854"/>
<ellipse rx="5.777954706298658" ry="5.777954706298658" id="ellipse0010" style="stroke-linejoin:miter;stroke-dasharray:none;stroke-width:1;fill:#c0c0c0;opacity:0.5;stroke:#c0c0c0;stroke-linecap:butt;" cx="264.27422988523307" cy="501.690620564854"/>
<text x="1131.816082508045" y="758.3077530971793" id="text0009" style="font-weight:normal;font-size:6pt;font-family:&apos;Arial&apos;;font-style:normal;fill:#000000;stroke:none;" transform="matrix(1 0 0 1 -1014.8360508849835 -588.703876359474)">
Leiksalur</text>
<text x="1131.816082508045" y="758.3077530971793" id="text0010" style="font-weight:normal;font-size:6pt;font-family:&apos;Arial&apos;;font-style:normal;fill:#000000;stroke:none;" transform="matrix(1 0 0 1 -1009.7491368224835 -580.3909491133802)">
austur</text>
<text x="1131.816082508045" y="758.3077530971793" id="text0011" style="font-weight:normal;font-size:6pt;font-family:&apos;Arial&apos;;font-style:normal;fill:#000000;stroke:none;" transform="matrix(1 0 0 1 -1011.4122227599835 -560.9104803633802)">
Kveikja</text>
<text x="1131.816082508045" y="758.3077530971793" id="text0012" style="font-weight:normal;font-size:6pt;font-family:&apos;Arial&apos;;font-style:normal;fill:#000000;stroke:none;" transform="matrix(1 0 0 1 -1014.8360508849835 -523.8297918868177)">
Leiksalur</text>
<text x="1131.816082508045" y="758.3077530971793" id="text0013" style="font-weight:normal;font-size:6pt;font-family:&apos;Arial&apos;;font-style:normal;fill:#000000;stroke:none;" transform="matrix(1 0 0 1 -1009.7491368224835 -515.516864640724)">
vestur</text>
<text x="1131.816082508045" y="758.3077530971793" id="text0014" style="font-weight:normal;font-size:6pt;font-family:&apos;Arial&apos;;font-style:normal;fill:#000000;stroke:none;" transform="matrix(1 0 0 1 -1011.4122227599835 -496.0363348555677)">
Kveikja</text>
<text x="1131.816082508045" y="758.3077530971793" id="text0015" style="font-weight:normal;font-size:6pt;font-family:&apos;Arial&apos;;font-style:normal;fill:#000000;stroke:none;" transform="matrix(1 0 0 1 -855.665274517796 -495.07155214072395)">
Slökkva</text>
<text x="1131.816082508045" y="758.3077530971793" id="text0016" style="font-weight:normal;font-size:6pt;font-family:&apos;Arial&apos;;font-style:normal;fill:#000000;stroke:none;" transform="matrix(1 0 0 1 -855.665274517796 -560.910419328224)">
Slökkva</text>
<text x="1131.816082508045" y="758.3077530971793" id="text0017" style="font-weight:normal;font-size:6pt;font-family:&apos;Arial&apos;;font-style:normal;fill:#000000;stroke:none;" transform="matrix(1 0 0 1 -858.661124127171 -522.865009171974)">
Leiksalur</text>
<text x="1131.816082508045" y="758.3077530971793" id="text0018" style="font-weight:normal;font-size:6pt;font-family:&apos;Arial&apos;;font-style:normal;fill:#000000;stroke:none;" transform="matrix(1 0 0 1 -854.002188580296 -514.5520819258802)">
vestur</text>
<text x="1131.816082508045" y="758.3077530971793" id="text0019" style="font-weight:normal;font-size:6pt;font-family:&apos;Arial&apos;;font-style:normal;fill:#000000;stroke:none;" transform="matrix(1 0 0 1 -858.233145611546 -588.703876359474)">
Leiksalur</text>
<text x="1131.816082508045" y="758.3077530971793" id="text0020" style="font-weight:normal;font-size:6pt;font-family:&apos;Arial&apos;;font-style:normal;fill:#000000;stroke:none;" transform="matrix(1 0 0 1 -854.0021275451397 -580.3909491133802)">
austur</text>
<text x="1131.816082508045" y="758.3077530971793" id="text0021" style="font-weight:normal;font-size:6pt;font-family:&apos;Arial&apos;;font-style:normal;fill:#000000;stroke:none;" transform="matrix(1 0 0 1 -1013.5521153381085 -460.45131288291145)">
Fjölnota</text>
<text x="1131.816082508045" y="758.3077530971793" id="text0022" style="font-weight:normal;font-size:6pt;font-family:&apos;Arial&apos;;font-style:normal;fill:#000000;stroke:none;" transform="matrix(1 0 0 1 -1006.3253086974835 -452.1383856368177)">
rými</text>
<text x="1131.816082508045" y="758.3077530971793" id="text0023" style="font-weight:normal;font-size:6pt;font-family:&apos;Arial&apos;;font-style:normal;fill:#000000;stroke:none;" transform="matrix(1 0 0 1 -1011.4122227599835 -432.6578405928724)">
Kveikja</text>
<text x="1131.816082508045" y="758.3077530971793" id="text0024" style="font-weight:normal;font-size:6pt;font-family:&apos;Arial&apos;;font-style:normal;fill:#000000;stroke:none;" transform="matrix(1 0 0 1 -856.390128033421 -460.45131288291145)">
Fjölnota</text>
<text x="1131.816082508045" y="758.3077530971793" id="text0025" style="font-weight:normal;font-size:6pt;font-family:&apos;Arial&apos;;font-style:normal;fill:#000000;stroke:none;" transform="matrix(1 0 0 1 -849.163321392796 -452.1383856368177)">
rými</text>
<text x="1131.816082508045" y="758.3077530971793" id="text0026" style="font-weight:normal;font-size:6pt;font-family:&apos;Arial&apos;;font-style:normal;fill:#000000;stroke:none;" transform="matrix(1 0 0 1 -855.962149517796 -432.6578405928724)">
Slökkva</text>
<text x="314.72859164897375" y="815.7112526539277" id="text0027" style="font-weight:normal;font-size:9pt;font-family:&apos;Tahoma&apos;;font-style:normal;fill:#000000;stroke:none;" transform="matrix(1 0 0 1 -127.20957841183892 -443.70875917197395)">
Gardínur</text>
<text x="314.72859164897375" y="815.7112526539277" id="text0028" style="font-weight:normal;font-size:9pt;font-family:&apos;Tahoma&apos;;font-style:normal;fill:#000000;stroke:none;" transform="matrix(1 0 0 1 -121.52964677121392 -431.0829199385755)">
austur</text>
<text x="314.72859164897375" y="815.7112526539277" id="text0029" style="font-weight:normal;font-size:9pt;font-family:&apos;Tahoma&apos;;font-style:normal;fill:#000000;stroke:none;" transform="matrix(1 0 0 1 -127.20957841183892 -379.4694861006849)">
Gardínur</text>
<text x="314.72859164897375" y="815.7112526539277" id="text0030" style="font-weight:normal;font-size:9pt;font-family:&apos;Tahoma&apos;;font-style:normal;fill:#000000;stroke:none;" transform="matrix(1 0 0 1 -130.30772294308892 -366.8436621260755)">
suðaustur</text>
<text x="314.72859164897375" y="815.7112526539277" id="text0031" style="font-weight:normal;font-size:9pt;font-family:&apos;Tahoma&apos;;font-style:normal;fill:#000000;stroke:none;" transform="matrix(1 0 0 1 -127.20957841183892 -312.82330690146614)">
Gardínur</text>
<text x="314.72859164897375" y="815.7112526539277" id="text0032" style="font-weight:normal;font-size:9pt;font-family:&apos;Tahoma&apos;;font-style:normal;fill:#000000;stroke:none;" transform="matrix(1 0 0 1 -129.79136552121392 -300.1974905562513)">
suðvestur</text>
<text x="1131.816082508045" y="758.3077530971793" id="text0033" style="font-weight:normal;font-size:6pt;font-family:&apos;Arial&apos;;font-style:normal;fill:#000000;stroke:none;" transform="matrix(1 0 0 1 -1005.3929966857647 -381.67914186240364)">
UPP</text>
<text x="1131.816082508045" y="758.3077530971793" id="text0034" style="font-weight:normal;font-size:6pt;font-family:&apos;Arial&apos;;font-style:normal;fill:#000000;stroke:none;" transform="matrix(1 0 0 1 -1005.3929966857647 -317.53700624228645)">
UPP</text>
<text x="1131.816082508045" y="758.3077530971793" id="text0035" style="font-weight:normal;font-size:6pt;font-family:&apos;Arial&apos;;font-style:normal;fill:#000000;stroke:none;" transform="matrix(1 0 0 1 -1005.3929966857647 -253.57014070273564)">
UPP</text>
<text x="1131.816082508045" y="758.3077530971793" id="text0036" style="font-weight:normal;font-size:6pt;font-family:&apos;Arial&apos;;font-style:normal;fill:#000000;stroke:none;" transform="matrix(1 0 0 1 -853.1411656310772 -381.67914186240364)">
NIÐUR</text>
<text x="1131.816082508045" y="758.3077530971793" id="text0037" style="font-weight:normal;font-size:6pt;font-family:&apos;Arial&apos;;font-style:normal;fill:#000000;stroke:none;" transform="matrix(1 0 0 1 -853.1411656310772 -317.53700624228645)">
NIÐUR</text>
<text x="1131.816082508045" y="758.3077530971793" id="text0038" style="font-weight:normal;font-size:6pt;font-family:&apos;Arial&apos;;font-style:normal;fill:#000000;stroke:none;" transform="matrix(1 0 0 1 -853.6575840881085 -253.57014070273564)">
NIÐUR</text>
<g inkscape:label="{&quot;attr&quot;:&quot;setlist&quot;,&quot;listClick&quot;:[{&quot;attr&quot;:&quot;set&quot;,&quot;tag&quot;:&quot;5:1/2/4@KNX&quot;,&quot;alias&quot;:&quot;lýsing.kveikingar.Leiksalur -  Ljós L8 í lofti austur.D7.3 Value&quot;,&quot;plcName&quot;:&quot;&quot;,&quot;prompt&quot;:&quot;&quot;,&quot;src&quot;:&quot;&quot;,&quot;type&quot;:&quot;=254*x/100.0+0&quot;,&quot;memory&quot;:&quot;NO&quot;,&quot;logging&quot;:&quot;NO&quot;,&quot;loggingText&quot;:&quot;&quot;,&quot;stringType&quot;:&quot;10;0;Automatic&quot;,&quot;lockEnable&quot;:&quot;NO&quot;,&quot;title&quot;:&quot;&quot;,&quot;batchID&quot;:1,&quot;data&quot;:{&quot;mainType&quot;:&quot;tag&quot;,&quot;setType&quot;:&quot;numeric&quot;,&quot;valueMin&quot;:&quot;0&quot;,&quot;aliasMin&quot;:&quot;&quot;,&quot;valueMax&quot;:&quot;100&quot;,&quot;aliasMax&quot;:&quot;&quot;,&quot;valueDec&quot;:&quot;0&quot;,&quot;valueType&quot;:&quot;dec&quot;,&quot;isPassword&quot;:false,&quot;connection&quot;:&quot;KNX&quot;}}],&quot;listDown&quot;:[],&quot;listUp&quot;:[]}" id="g0001">
<rect x="183.61773939169146" y="171.1664327531777" width="55.06050955414014" style="fill:#c0c0c0;stroke:#000000; stroke-width:1;stroke-dasharray:none;stroke-linecap:butt;stroke-linejoin:miter;" rx="0" ry="0" height="22.432059447983193" id="rect0001"/>
<text x="314.72859164897375" y="815.7112526539277" id="text0039" style="font-weight:normal;font-size:9pt;font-family:&apos;Tahoma&apos;;font-style:normal;fill:#000000;stroke:none;" transform="matrix(1 0 0 1 -126.35691727902642 -629.590106828224)">
Birtugildi</text>
</g>
<ellipse style="stroke-linejoin:miter;stroke-dasharray:none;stroke-width:1;fill:#c0c0c0;opacity:0.5;stroke:#c0c0c0;stroke-linecap:butt;" inkscape:label="{&quot;attr&quot;:&quot;color&quot;,&quot;list&quot;:[{&quot;data&quot;:&quot;1&quot;,&quot;datamax&quot;:&quot;1&quot;,&quot;param&quot;:&quot;#008000&quot;,&quot;tag&quot;:&quot;1:1/3/2@KNX&quot;,&quot;alias&quot;:&quot;lýsing.kveikingar.Leiksalur - Ljós L8 í lofti vestur.D7.1 FB Swi&quot;,&quot;aliasMin&quot;:&quot;&quot;,&quot;aliasMax&quot;:&quot;&quot;,&quot;plcName&quot;:&quot;&quot;,&quot;type&quot;:&quot;0&quot;},{&quot;data&quot;:&quot;0&quot;,&quot;datamax&quot;:&quot;0&quot;,&quot;param&quot;:&quot;#c0c0c0&quot;,&quot;tag&quot;:&quot;1:1/3/2@KNX&quot;,&quot;alias&quot;:&quot;lýsing.kveikingar.Leiksalur - Ljós L8 í lofti vestur.D7.1 FB Swi&quot;,&quot;aliasMin&quot;:&quot;&quot;,&quot;aliasMax&quot;:&quot;&quot;,&quot;plcName&quot;:&quot;&quot;,&quot;type&quot;:&quot;0&quot;}]}" rx="5.777954706298658" cx="157.9480728470903" id="ellipse0011" ry="5.777954706298658" cy="248.8937556264327"/>
<ellipse style="stroke-linejoin:miter;stroke-dasharray:none;stroke-width:1;fill:#c0c0c0;opacity:0.5;stroke:#c0c0c0;stroke-linecap:butt;" inkscape:label="{&quot;attr&quot;:&quot;color&quot;,&quot;list&quot;:[{&quot;data&quot;:&quot;0&quot;,&quot;datamax&quot;:&quot;0&quot;,&quot;param&quot;:&quot;#FF0000&quot;,&quot;tag&quot;:&quot;1:1/3/2@KNX&quot;,&quot;alias&quot;:&quot;lýsing.kveikingar.Leiksalur - Ljós L8 í lofti vestur.D7.1 FB Swi&quot;,&quot;aliasMin&quot;:&quot;&quot;,&quot;aliasMax&quot;:&quot;&quot;,&quot;plcName&quot;:&quot;&quot;,&quot;type&quot;:&quot;0&quot;},{&quot;data&quot;:&quot;1&quot;,&quot;datamax&quot;:&quot;1&quot;,&quot;param&quot;:&quot;#c0c0c0&quot;,&quot;tag&quot;:&quot;1:1/3/2@KNX&quot;,&quot;alias&quot;:&quot;lýsing.kveikingar.Leiksalur - Ljós L8 í lofti vestur.D7.1 FB Swi&quot;,&quot;aliasMin&quot;:&quot;&quot;,&quot;aliasMax&quot;:&quot;&quot;,&quot;plcName&quot;:&quot;&quot;,&quot;type&quot;:&quot;0&quot;}]}" rx="5.777954706298658" cx="263.85812477096823" id="ellipse0012" ry="5.777954706298658" cy="248.8937556264327"/>
<g inkscape:label="{&quot;attr&quot;:&quot;setlist&quot;,&quot;listClick&quot;:[{&quot;attr&quot;:&quot;set&quot;,&quot;tag&quot;:&quot;5:1/2/2@KNX&quot;,&quot;alias&quot;:&quot;lýsing.kveikingar.Leiksalur - Ljós L8 í lofti vestur.D7.1 Value&quot;,&quot;plcName&quot;:&quot;&quot;,&quot;prompt&quot;:&quot;&quot;,&quot;src&quot;:&quot;&quot;,&quot;type&quot;:&quot;=254*x/100.0+0&quot;,&quot;memory&quot;:&quot;NO&quot;,&quot;logging&quot;:&quot;NO&quot;,&quot;loggingText&quot;:&quot;&quot;,&quot;stringType&quot;:&quot;10;0;Automatic&quot;,&quot;lockEnable&quot;:&quot;NO&quot;,&quot;title&quot;:&quot;&quot;,&quot;batchID&quot;:1,&quot;data&quot;:{&quot;mainType&quot;:&quot;tag&quot;,&quot;setType&quot;:&quot;numeric&quot;,&quot;valueMin&quot;:&quot;0&quot;,&quot;aliasMin&quot;:&quot;&quot;,&quot;valueMax&quot;:&quot;100&quot;,&quot;aliasMax&quot;:&quot;&quot;,&quot;valueDec&quot;:&quot;0&quot;,&quot;valueType&quot;:&quot;dec&quot;,&quot;isPassword&quot;:false,&quot;connection&quot;:&quot;KNX&quot;}}],&quot;listDown&quot;:[],&quot;listUp&quot;:[]}" id="g0006">
<rect x="183.61773939169169" y="237.19194305064482" width="55.06050955414014" style="fill:#c0c0c0;stroke:#000000; stroke-width:1;stroke-dasharray:none;stroke-linecap:butt;stroke-linejoin:miter;" rx="0" ry="0" id="rect0026" height="22.432059447983193"/>
<text x="314.72859164897375" y="815.7112526539277" id="text0040" style="font-weight:normal;font-size:9pt;font-family:&apos;Tahoma&apos;;font-style:normal;fill:#000000;stroke:none;" transform="matrix(1 0 0 1 -126.35679520871392 -563.5645941329115)">
Birtugildi</text>
</g>
<ellipse style="stroke-linejoin:miter;stroke-dasharray:none;stroke-width:1;fill:#c0c0c0;opacity:0.5;stroke:#c0c0c0;stroke-linecap:butt;" inkscape:label="{&quot;attr&quot;:&quot;color&quot;,&quot;list&quot;:[{&quot;data&quot;:&quot;1&quot;,&quot;datamax&quot;:&quot;1&quot;,&quot;param&quot;:&quot;#008000&quot;,&quot;tag&quot;:&quot;1:1/0/92@KNX&quot;,&quot;alias&quot;:&quot;lýsing.kveikingar.Fjölnota rými - Loftljós.Swi&quot;,&quot;aliasMin&quot;:&quot;&quot;,&quot;aliasMax&quot;:&quot;&quot;,&quot;plcName&quot;:&quot;&quot;,&quot;type&quot;:&quot;0&quot;},{&quot;data&quot;:&quot;0&quot;,&quot;datamax&quot;:&quot;0&quot;,&quot;param&quot;:&quot;#c0c0c0&quot;,&quot;tag&quot;:&quot;1:1/0/92@KNX&quot;,&quot;alias&quot;:&quot;lýsing.kveikingar.Fjölnota rými - Loftljós.Swi&quot;,&quot;aliasMin&quot;:&quot;&quot;,&quot;aliasMax&quot;:&quot;&quot;,&quot;plcName&quot;:&quot;&quot;,&quot;type&quot;:&quot;0&quot;}]}" rx="5.777954706298658" cx="157.9480728470903" id="ellipse0013" ry="5.777954706298658" cy="311.72155877501046"/>
<ellipse style="stroke-linejoin:miter;stroke-dasharray:none;stroke-width:1;fill:#c0c0c0;opacity:0.5;stroke:#c0c0c0;stroke-linecap:butt;" inkscape:label="{&quot;attr&quot;:&quot;color&quot;,&quot;list&quot;:[{&quot;data&quot;:&quot;0&quot;,&quot;datamax&quot;:&quot;0&quot;,&quot;param&quot;:&quot;#FF0000&quot;,&quot;tag&quot;:&quot;1:1/0/92@KNX&quot;,&quot;alias&quot;:&quot;lýsing.kveikingar.Fjölnota rými - Loftljós.Swi&quot;,&quot;aliasMin&quot;:&quot;&quot;,&quot;aliasMax&quot;:&quot;&quot;,&quot;plcName&quot;:&quot;&quot;,&quot;type&quot;:&quot;0&quot;},{&quot;data&quot;:&quot;1&quot;,&quot;datamax&quot;:&quot;1&quot;,&quot;param&quot;:&quot;#c0c0c0&quot;,&quot;tag&quot;:&quot;1:1/0/92@KNX&quot;,&quot;alias&quot;:&quot;lýsing.kveikingar.Fjölnota rými - Loftljós.Swi&quot;,&quot;aliasMin&quot;:&quot;&quot;,&quot;aliasMax&quot;:&quot;&quot;,&quot;plcName&quot;:&quot;&quot;,&quot;type&quot;:&quot;0&quot;}]}" rx="5.777954706298658" cx="263.85812477096823" id="ellipse0014" ry="5.777954706298658" cy="311.72155877501046"/>
<g inkscape:label="{&quot;attr&quot;:&quot;setlist&quot;,&quot;listClick&quot;:[{&quot;attr&quot;:&quot;set&quot;,&quot;tag&quot;:&quot;5:1/2/92@KNX&quot;,&quot;alias&quot;:&quot;lýsing.kveikingar.Fjölnota rými - Loftljós.Value&quot;,&quot;plcName&quot;:&quot;&quot;,&quot;prompt&quot;:&quot;&quot;,&quot;src&quot;:&quot;&quot;,&quot;type&quot;:&quot;=254*x/100.0+0&quot;,&quot;memory&quot;:&quot;NO&quot;,&quot;logging&quot;:&quot;NO&quot;,&quot;loggingText&quot;:&quot;&quot;,&quot;stringType&quot;:&quot;10;0;Automatic&quot;,&quot;lockEnable&quot;:&quot;NO&quot;,&quot;title&quot;:&quot;&quot;,&quot;batchID&quot;:1,&quot;data&quot;:{&quot;mainType&quot;:&quot;tag&quot;,&quot;setType&quot;:&quot;numeric&quot;,&quot;valueMin&quot;:&quot;0&quot;,&quot;aliasMin&quot;:&quot;&quot;,&quot;valueMax&quot;:&quot;100&quot;,&quot;aliasMax&quot;:&quot;&quot;,&quot;valueDec&quot;:&quot;0&quot;,&quot;valueType&quot;:&quot;dec&quot;,&quot;isPassword&quot;:false,&quot;connection&quot;:&quot;KNX&quot;}}],&quot;listDown&quot;:[],&quot;listUp&quot;:[]}" id="g0007">
<rect x="183.61773939169169" y="300.0197461992226" width="55.06050955414014" style="fill:#c0c0c0;stroke:#000000; stroke-width:1;stroke-dasharray:none;stroke-linecap:butt;stroke-linejoin:miter;" rx="0" ry="0" id="rect0027" height="22.432059447983193"/>
<text x="314.72859164897375" y="815.7112526539277" id="text0041" style="font-weight:normal;font-size:9pt;font-family:&apos;Tahoma&apos;;font-style:normal;fill:#000000;stroke:none;" transform="matrix(1 0 0 1 -126.35679520871392 -500.7368048262708)">
Birtugildi</text>
</g>
<g inkscape:label="{&quot;attr&quot;:&quot;opac&quot;,&quot;tag&quot;:&quot;=popup1&quot;,&quot;alias&quot;:&quot;=popup1&quot;,&quot;plcName&quot;:&quot;&quot;,&quot;min&quot;:&quot;1.0&quot;,&quot;aliasMin&quot;:&quot;&quot;,&quot;max&quot;:&quot;1.0&quot;,&quot;aliasMax&quot;:&quot;&quot;},{&quot;attr&quot;:&quot;setlist&quot;,&quot;listClick&quot;:[{&quot;attr&quot;:&quot;set&quot;,&quot;tag&quot;:&quot;popup1&quot;,&quot;alias&quot;:&quot;popup1&quot;,&quot;plcName&quot;:&quot;&quot;,&quot;prompt&quot;:&quot;&quot;,&quot;src&quot;:&quot;&quot;,&quot;type&quot;:&quot;&quot;,&quot;memory&quot;:&quot;YES&quot;,&quot;logging&quot;:&quot;NO&quot;,&quot;loggingText&quot;:&quot;&quot;,&quot;stringType&quot;:&quot;10;0;Automatic&quot;,&quot;lockEnable&quot;:&quot;NO&quot;,&quot;title&quot;:&quot;title&quot;,&quot;batchID&quot;:1,&quot;data&quot;:{&quot;mainType&quot;:&quot;memory&quot;,&quot;setType&quot;:&quot;value&quot;,&quot;value&quot;:&quot;0&quot;,&quot;prompt&quot;:false,&quot;promptText&quot;:&quot;&quot;}}],&quot;listDown&quot;:[],&quot;listUp&quot;:[]}" id="g0011">
<rect x="1761.867983771899" width="110" y="354.58000104969403" height="30" id="rect0045" style="fill:#c0c0c0;stroke:#000000; stroke-width:1;stroke-dasharray:none;stroke-linecap:butt;stroke-linejoin:miter;"/>
<text x="1768.3287477399576" y="474.17184183633367" id="text0050" style="font-weight:normal;font-size:12pt;font-family:&apos;Arial&apos;;font-style:normal;fill:#000000;stroke:none;" transform="matrix(1 0 0 1 2.1427783966064453 -100.0825942024352)">
Loka Glugga</text>
</g>
<g inkscape:label="{&quot;attr&quot;:&quot;open&quot;,&quot;command&quot;:&quot;&quot;,&quot;newWindow&quot;:&quot;&quot;,&quot;target&quot;:&quot;-1&quot;,&quot;lockEnable&quot;:&quot;No&quot;,&quot;openData&quot;:{&quot;type&quot;:&quot;parwin&quot;,&quot;screen&quot;:&quot;Neyðarljós [PAR]&quot;,&quot;indexes&quot;:[&quot;Neyðarljós - 8/1/1&quot;,&quot;1&quot;],&quot;connections&quot;:[&quot;KNX&quot;],&quot;target&quot;:1,&quot;lockEnable&quot;:false,&quot;textScale&quot;:100,&quot;zoom&quot;:&quot;automatic&quot;},&quot;modal&quot;:false,&quot;topBar&quot;:false,&quot;closeButton&quot;:false,&quot;resize&quot;:false,&quot;titleColor&quot;:&quot;#1C648C&quot;,&quot;textColor&quot;:&quot;#FFFFFF&quot;,&quot;title&quot;:&quot;&quot;,&quot;titleTrans&quot;:{}},{&quot;attr&quot;:&quot;setlist&quot;,&quot;listClick&quot;:[{&quot;attr&quot;:&quot;set&quot;,&quot;tag&quot;:&quot;popup1&quot;,&quot;alias&quot;:&quot;popup1&quot;,&quot;plcName&quot;:&quot;&quot;,&quot;prompt&quot;:&quot;&quot;,&quot;src&quot;:&quot;&quot;,&quot;type&quot;:&quot;&quot;,&quot;memory&quot;:&quot;YES&quot;,&quot;logging&quot;:&quot;NO&quot;,&quot;loggingText&quot;:&quot;&quot;,&quot;stringType&quot;:&quot;10;0;Automatic&quot;,&quot;lockEnable&quot;:&quot;NO&quot;,&quot;title&quot;:&quot;&quot;,&quot;batchID&quot;:1,&quot;data&quot;:{&quot;mainType&quot;:&quot;memory&quot;,&quot;setType&quot;:&quot;value&quot;,&quot;value&quot;:&quot;1&quot;,&quot;prompt&quot;:false,&quot;promptText&quot;:&quot;&quot;}}],&quot;listDown&quot;:[],&quot;listUp&quot;:[]}" id="g0012">
<image xmlns:xlink="http://www.w3.org/1999/xlink" id="image0008" width="41.203758287057326" xlink:show="embed" xlink:type="simple" preserveAspectRatio="none meet" height="20.03445450610093" x="321.9327266589841" rx="0" y="644.6673006270455" ry="0" xlink:href="data/every/images/C39AtExit.jpg" xlink:actuate="onLoad"/>
<rect x="320.6898233962988" width="43.50090426760039" y="639.5976345198048" id="rect0046" height="4.901715627993326" style="fill:#c0c0c0;stroke:#000000; stroke-width:1;stroke-dasharray:none;stroke-linecap:butt;stroke-linejoin:miter;"/>
<rect x="321.9327266589841" width="41.03436225720134" y="644.6673006270455" id="rect0047" height="20.03445450610093" style="stroke-linejoin:miter;stroke-dasharray:none;stroke-width:1;fill:#c0c0c0;stroke:#000000;fill-opacity:0.0;stroke-linecap:butt;"/>
<text x="189.25666526591016" y="610.8236447681745" id="text0051" style="font-weight:normal;font-size:6pt;font-family:&apos;Arial&apos;;font-style:normal;fill:#ffff00;stroke:none;" transform="matrix(0.5601961016654968 0 0 0.5601961016654968 227.56417846679688 301.7553894537119)" inkscape:label="{&quot;attr&quot;:&quot;opac&quot;,&quot;tag&quot;:&quot;=adr(5:8/0/1.1@KNX) || adr(5:8/0/1.5@KNX) || adr(5:8/0/1.7@KNX) &quot;,&quot;alias&quot;:&quot;=alias(Function test running) || alias(Continuous operation test running) || alias(Battery test running)&quot;,&quot;plcName&quot;:&quot;&quot;,&quot;min&quot;:&quot;1.0&quot;,&quot;aliasMin&quot;:&quot;&quot;,&quot;max&quot;:&quot;1.0&quot;,&quot;aliasMax&quot;:&quot;&quot;}">
Í PRUFU</text>
</g>
<g inkscape:label="{&quot;attr&quot;:&quot;open&quot;,&quot;command&quot;:&quot;&quot;,&quot;newWindow&quot;:&quot;&quot;,&quot;target&quot;:&quot;-1&quot;,&quot;lockEnable&quot;:&quot;No&quot;,&quot;openData&quot;:{&quot;type&quot;:&quot;parwin&quot;,&quot;screen&quot;:&quot;Neyðarljós [PAR]&quot;,&quot;indexes&quot;:[&quot;Neyðarljós - 8/1/1&quot;,&quot;1&quot;],&quot;connections&quot;:[&quot;KNX&quot;],&quot;target&quot;:1,&quot;lockEnable&quot;:false,&quot;textScale&quot;:100,&quot;zoom&quot;:&quot;automatic&quot;},&quot;modal&quot;:false,&quot;topBar&quot;:false,&quot;closeButton&quot;:false,&quot;resize&quot;:false,&quot;titleColor&quot;:&quot;#1C648C&quot;,&quot;textColor&quot;:&quot;#FFFFFF&quot;,&quot;title&quot;:&quot;&quot;,&quot;titleTrans&quot;:{}},{&quot;attr&quot;:&quot;setlist&quot;,&quot;listClick&quot;:[{&quot;attr&quot;:&quot;set&quot;,&quot;tag&quot;:&quot;popup1&quot;,&quot;alias&quot;:&quot;popup1&quot;,&quot;plcName&quot;:&quot;&quot;,&quot;prompt&quot;:&quot;&quot;,&quot;src&quot;:&quot;&quot;,&quot;type&quot;:&quot;&quot;,&quot;memory&quot;:&quot;YES&quot;,&quot;logging&quot;:&quot;NO&quot;,&quot;loggingText&quot;:&quot;&quot;,&quot;stringType&quot;:&quot;10;0;Automatic&quot;,&quot;lockEnable&quot;:&quot;NO&quot;,&quot;title&quot;:&quot;&quot;,&quot;batchID&quot;:1,&quot;data&quot;:{&quot;mainType&quot;:&quot;memory&quot;,&quot;setType&quot;:&quot;value&quot;,&quot;value&quot;:&quot;1&quot;,&quot;prompt&quot;:false,&quot;promptText&quot;:&quot;&quot;}}],&quot;listDown&quot;:[],&quot;listUp&quot;:[]}" id="g0013">
<image xmlns:xlink="http://www.w3.org/1999/xlink" id="image0009" transform="matrix(0.9899626676932141 -0.1413291073124536 0.1413291073124536 0.9899626676932141 -76.24434003620794 71.46137193292773)" width="41.203758287057326" xlink:show="embed" xlink:type="simple" preserveAspectRatio="none meet" height="20.03445450610093" x="440.10186860954303" rx="0" y="558.9964259954374" ry="0" xlink:href="data/every/images/C39AtExit.jpg" xlink:actuate="onLoad"/>
<rect x="438.8589653468577" y="553.9267598881968" transform="matrix(0.9899626676932141 -0.1413291073124536 0.1413291073124536 0.9899626676932141 -76.24434003620794 71.46137193292773)" width="43.50090426760039" style="fill:#c0c0c0;stroke:#000000; stroke-width:1;stroke-dasharray:none;stroke-linecap:butt;stroke-linejoin:miter;" height="4.901715627993326" id="rect0048"/>
<rect x="440.10186860954303" y="558.9964259954374" transform="matrix(0.9899626676932141 -0.1413291073124536 0.1413291073124536 0.9899626676932141 -76.24434003620794 71.46137193292773)" width="41.03436225720134" style="stroke-linejoin:miter;stroke-dasharray:none;stroke-width:1;fill:#c0c0c0;stroke:#000000;fill-opacity:0.0;stroke-linecap:butt;" height="20.03445450610093" id="rect0049"/>
<text x="189.25666526591016" y="610.8236447681745" id="text0052" style="font-weight:normal;font-size:6pt;font-family:&apos;Arial&apos;;font-style:normal;fill:#ffff00;stroke:none;" transform="matrix(0.5545732378959656 -0.07917201519012451 0.07917201519012451 0.5545732378959656 296.5576293451162 236.5146484375)" inkscape:label="{&quot;attr&quot;:&quot;opac&quot;,&quot;tag&quot;:&quot;=adr(5:8/0/1.1@KNX) || adr(5:8/0/1.5@KNX) || adr(5:8/0/1.7@KNX) &quot;,&quot;alias&quot;:&quot;=alias(Function test running) || alias(Continuous operation test running) || alias(Battery test running)&quot;,&quot;plcName&quot;:&quot;&quot;,&quot;min&quot;:&quot;1.0&quot;,&quot;aliasMin&quot;:&quot;&quot;,&quot;max&quot;:&quot;1.0&quot;,&quot;aliasMax&quot;:&quot;&quot;}">
Í PRUFU</text>
</g>
<g inkscape:label="{&quot;attr&quot;:&quot;open&quot;,&quot;command&quot;:&quot;&quot;,&quot;newWindow&quot;:&quot;&quot;,&quot;target&quot;:&quot;-1&quot;,&quot;lockEnable&quot;:&quot;No&quot;,&quot;openData&quot;:{&quot;type&quot;:&quot;parwin&quot;,&quot;screen&quot;:&quot;Neyðarljós [PAR]&quot;,&quot;indexes&quot;:[&quot;Neyðarljós - 8/1/1&quot;,&quot;1&quot;],&quot;connections&quot;:[&quot;KNX&quot;],&quot;target&quot;:1,&quot;lockEnable&quot;:false,&quot;textScale&quot;:100,&quot;zoom&quot;:&quot;automatic&quot;},&quot;modal&quot;:false,&quot;topBar&quot;:false,&quot;closeButton&quot;:false,&quot;resize&quot;:false,&quot;titleColor&quot;:&quot;#1C648C&quot;,&quot;textColor&quot;:&quot;#FFFFFF&quot;,&quot;title&quot;:&quot;&quot;,&quot;titleTrans&quot;:{}},{&quot;attr&quot;:&quot;setlist&quot;,&quot;listClick&quot;:[{&quot;attr&quot;:&quot;set&quot;,&quot;tag&quot;:&quot;popup1&quot;,&quot;alias&quot;:&quot;popup1&quot;,&quot;plcName&quot;:&quot;&quot;,&quot;prompt&quot;:&quot;&quot;,&quot;src&quot;:&quot;&quot;,&quot;type&quot;:&quot;&quot;,&quot;memory&quot;:&quot;YES&quot;,&quot;logging&quot;:&quot;NO&quot;,&quot;loggingText&quot;:&quot;&quot;,&quot;stringType&quot;:&quot;10;0;Automatic&quot;,&quot;lockEnable&quot;:&quot;NO&quot;,&quot;title&quot;:&quot;&quot;,&quot;batchID&quot;:1,&quot;data&quot;:{&quot;mainType&quot;:&quot;memory&quot;,&quot;setType&quot;:&quot;value&quot;,&quot;value&quot;:&quot;1&quot;,&quot;prompt&quot;:false,&quot;promptText&quot;:&quot;&quot;}}],&quot;listDown&quot;:[],&quot;listUp&quot;:[]}" id="g0014">
<image xmlns:xlink="http://www.w3.org/1999/xlink" id="image0010" transform="matrix(0.9899626676932141 -0.1413291073124536 0.1413291073124536 0.9899626676932141 -76.24434003620794 71.46137193292773)" width="41.203758287057326" xlink:show="embed" xlink:type="simple" preserveAspectRatio="none meet" height="20.03445450610093" x="754.9701338323363" rx="0" ry="0" y="557.3451291503314" xlink:href="data/every/images/C39AtExit.jpg" xlink:actuate="onLoad"/>
<rect x="753.7272305696509" y="552.2754630430908" transform="matrix(0.9899626676932141 -0.1413291073124536 0.1413291073124536 0.9899626676932141 -76.24434003620794 71.46137193292773)" width="43.50090426760039" style="fill:#c0c0c0;stroke:#000000; stroke-width:1;stroke-dasharray:none;stroke-linecap:butt;stroke-linejoin:miter;" id="rect0050" height="4.901715627993326"/>
<rect x="754.9701338323363" y="557.3451291503314" transform="matrix(0.9899626676932141 -0.1413291073124536 0.1413291073124536 0.9899626676932141 -76.24434003620794 71.46137193292773)" width="41.03436225720134" style="stroke-linejoin:miter;stroke-dasharray:none;stroke-width:1;fill:#c0c0c0;stroke:#000000;fill-opacity:0.0;stroke-linecap:butt;" id="rect0051" height="20.03445450610093"/>
<text x="189.25666526591016" y="610.8236447681745" id="text0053" style="font-weight:normal;font-size:6pt;font-family:&apos;Arial&apos;;font-style:normal;fill:#ffff00;stroke:none;" transform="matrix(0.5545732378959656 -0.07917201519012451 0.07917201519012451 0.5545732378959656 608.0321044921875 190.3798797113271)" inkscape:label="{&quot;attr&quot;:&quot;opac&quot;,&quot;tag&quot;:&quot;=adr(5:8/0/1.1@KNX) || adr(5:8/0/1.5@KNX) || adr(5:8/0/1.7@KNX) &quot;,&quot;alias&quot;:&quot;=alias(Function test running) || alias(Continuous operation test running) || alias(Battery test running)&quot;,&quot;plcName&quot;:&quot;&quot;,&quot;min&quot;:&quot;1.0&quot;,&quot;aliasMin&quot;:&quot;&quot;,&quot;max&quot;:&quot;1.0&quot;,&quot;aliasMax&quot;:&quot;&quot;}">
Í PRUFU</text>
</g>
<g inkscape:label="{&quot;attr&quot;:&quot;open&quot;,&quot;command&quot;:&quot;&quot;,&quot;newWindow&quot;:&quot;&quot;,&quot;target&quot;:&quot;-1&quot;,&quot;lockEnable&quot;:&quot;No&quot;,&quot;openData&quot;:{&quot;type&quot;:&quot;parwin&quot;,&quot;screen&quot;:&quot;Neyðarljós [PAR]&quot;,&quot;indexes&quot;:[&quot;Neyðarljós - 8/1/1&quot;,&quot;1&quot;],&quot;connections&quot;:[&quot;KNX&quot;],&quot;target&quot;:1,&quot;lockEnable&quot;:false,&quot;textScale&quot;:100,&quot;zoom&quot;:&quot;automatic&quot;},&quot;modal&quot;:false,&quot;topBar&quot;:false,&quot;closeButton&quot;:false,&quot;resize&quot;:false,&quot;titleColor&quot;:&quot;#1C648C&quot;,&quot;textColor&quot;:&quot;#FFFFFF&quot;,&quot;title&quot;:&quot;&quot;,&quot;titleTrans&quot;:{}},{&quot;attr&quot;:&quot;setlist&quot;,&quot;listClick&quot;:[{&quot;attr&quot;:&quot;set&quot;,&quot;tag&quot;:&quot;popup1&quot;,&quot;alias&quot;:&quot;popup1&quot;,&quot;plcName&quot;:&quot;&quot;,&quot;prompt&quot;:&quot;&quot;,&quot;src&quot;:&quot;&quot;,&quot;type&quot;:&quot;&quot;,&quot;memory&quot;:&quot;YES&quot;,&quot;logging&quot;:&quot;NO&quot;,&quot;loggingText&quot;:&quot;&quot;,&quot;stringType&quot;:&quot;10;0;Automatic&quot;,&quot;lockEnable&quot;:&quot;NO&quot;,&quot;title&quot;:&quot;&quot;,&quot;batchID&quot;:1,&quot;data&quot;:{&quot;mainType&quot;:&quot;memory&quot;,&quot;setType&quot;:&quot;value&quot;,&quot;value&quot;:&quot;1&quot;,&quot;prompt&quot;:false,&quot;promptText&quot;:&quot;&quot;}}],&quot;listDown&quot;:[],&quot;listUp&quot;:[]}" id="g0015">
<image xmlns:xlink="http://www.w3.org/1999/xlink" id="image0011" width="41.203758287057326" xlink:show="embed" xlink:type="simple" preserveAspectRatio="none meet" height="20.03445450610093" x="1199.0178293822062" rx="0" y="644.4623901758437" ry="0" xlink:href="data/every/images/C39AtExit.jpg" xlink:actuate="onLoad"/>
<rect x="1197.7749261195208" width="43.50090426760039" id="rect0052" height="4.901715627993326" y="639.392724068603" style="fill:#c0c0c0;stroke:#000000; stroke-width:1;stroke-dasharray:none;stroke-linecap:butt;stroke-linejoin:miter;"/>
<rect x="1199.0178293822062" width="41.03436225720134" id="rect0053" height="20.03445450610093" y="644.4623901758437" style="stroke-linejoin:miter;stroke-dasharray:none;stroke-width:1;fill:#c0c0c0;stroke:#000000;fill-opacity:0.0;stroke-linecap:butt;"/>
<text x="189.25666526591016" y="610.8236447681745" id="text0054" style="font-weight:normal;font-size:6pt;font-family:&apos;Arial&apos;;font-style:normal;fill:#ffff00;stroke:none;" transform="matrix(0.5601961016654968 0 0 0.5601961016654968 1104.6495040720674 301.5505065917969)" inkscape:label="{&quot;attr&quot;:&quot;opac&quot;,&quot;tag&quot;:&quot;=adr(5:8/0/1.1@KNX) || adr(5:8/0/1.5@KNX) || adr(5:8/0/1.7@KNX) &quot;,&quot;alias&quot;:&quot;=alias(Function test running) || alias(Continuous operation test running) || alias(Battery test running)&quot;,&quot;plcName&quot;:&quot;&quot;,&quot;min&quot;:&quot;1.0&quot;,&quot;aliasMin&quot;:&quot;&quot;,&quot;max&quot;:&quot;1.0&quot;,&quot;aliasMax&quot;:&quot;&quot;}">
Í PRUFU</text>
</g>
</g>
<g inkscape:groupmode="layer" id="layer4" style="opacity:0.0;display:inline;" inkscape:layerlabel="Ljós hnappar">
<rect x="1536.5099205155855" y="691.4621382349287" width="37.0734042793099" style="stroke-linejoin:miter;stroke-dasharray:none;stroke-width:1;fill:#c0c0c0;opacity:1.0;stroke:#000000;fill-opacity:1.0;stroke-linecap:butt;" inkscape:label="{&quot;attr&quot;:&quot;setlist&quot;,&quot;listClick&quot;:[{&quot;attr&quot;:&quot;set&quot;,&quot;tag&quot;:&quot;1:1/0/44@KNX&quot;,&quot;alias&quot;:&quot;lýsing.kveikingar.Hvíld 1 - Loftljós.D4.4 Swi&quot;,&quot;plcName&quot;:&quot;&quot;,&quot;prompt&quot;:&quot;&quot;,&quot;src&quot;:&quot;&quot;,&quot;type&quot;:&quot;&quot;,&quot;memory&quot;:&quot;NO&quot;,&quot;logging&quot;:&quot;NO&quot;,&quot;loggingText&quot;:&quot;&quot;,&quot;stringType&quot;:&quot;10;0;Automatic&quot;,&quot;lockEnable&quot;:&quot;NO&quot;,&quot;title&quot;:&quot;hvíld 1 loftljós - kveikja&quot;,&quot;batchID&quot;:1,&quot;data&quot;:{&quot;mainType&quot;:&quot;tag&quot;,&quot;setType&quot;:&quot;value&quot;,&quot;value&quot;:&quot;1.0&quot;,&quot;prompt&quot;:false,&quot;promptText&quot;:&quot;&quot;,&quot;connection&quot;:&quot;KNX&quot;}}],&quot;listDown&quot;:[],&quot;listUp&quot;:[]}" id="rect0041" height="193.69761413427602"/>
<rect x="1693.6797574526204" y="691.4621382349287" width="37.0734042793099" style="stroke-linejoin:miter;stroke-dasharray:none;stroke-width:1;fill:#c0c0c0;opacity:1.0;stroke:#000000;fill-opacity:1.0;stroke-linecap:butt;" inkscape:label="{&quot;attr&quot;:&quot;setlist&quot;,&quot;listClick&quot;:[{&quot;attr&quot;:&quot;set&quot;,&quot;tag&quot;:&quot;1:1/0/44@KNX&quot;,&quot;alias&quot;:&quot;lýsing.kveikingar.Hvíld 1 - Loftljós.D4.4 Swi&quot;,&quot;plcName&quot;:&quot;&quot;,&quot;prompt&quot;:&quot;&quot;,&quot;src&quot;:&quot;&quot;,&quot;type&quot;:&quot;&quot;,&quot;memory&quot;:&quot;NO&quot;,&quot;logging&quot;:&quot;NO&quot;,&quot;loggingText&quot;:&quot;&quot;,&quot;stringType&quot;:&quot;10;0;Automatic&quot;,&quot;lockEnable&quot;:&quot;NO&quot;,&quot;title&quot;:&quot;hvíld 1 loftljós - slökkva&quot;,&quot;batchID&quot;:1,&quot;data&quot;:{&quot;mainType&quot;:&quot;tag&quot;,&quot;setType&quot;:&quot;value&quot;,&quot;value&quot;:&quot;0.0&quot;,&quot;prompt&quot;:false,&quot;promptText&quot;:&quot;&quot;,&quot;connection&quot;:&quot;KNX&quot;}}],&quot;listDown&quot;:[],&quot;listUp&quot;:[]}" height="193.69761413427602" id="rect0042"/>
<rect x="113.22202475429665" y="150.33945718204134" width="37.0734042793099" style="stroke-linejoin:miter;stroke-dasharray:none;stroke-width:1;fill:#c0c0c0;opacity:1.0;stroke:#000000;fill-opacity:1.0;stroke-linecap:butt;" inkscape:label="{&quot;attr&quot;:&quot;setlist&quot;,&quot;listClick&quot;:[{&quot;attr&quot;:&quot;set&quot;,&quot;tag&quot;:&quot;1:1/0/4@KNX&quot;,&quot;alias&quot;:&quot;lýsing.kveikingar.Leiksalur -  Ljós L8 í lofti austur.D7.3 Swi&quot;,&quot;plcName&quot;:&quot;&quot;,&quot;prompt&quot;:&quot;&quot;,&quot;src&quot;:&quot;&quot;,&quot;type&quot;:&quot;&quot;,&quot;memory&quot;:&quot;NO&quot;,&quot;logging&quot;:&quot;NO&quot;,&quot;loggingText&quot;:&quot;&quot;,&quot;stringType&quot;:&quot;10;0;Automatic&quot;,&quot;lockEnable&quot;:&quot;NO&quot;,&quot;title&quot;:&quot;&quot;,&quot;batchID&quot;:1,&quot;data&quot;:{&quot;mainType&quot;:&quot;tag&quot;,&quot;setType&quot;:&quot;value&quot;,&quot;value&quot;:&quot;1.0&quot;,&quot;prompt&quot;:false,&quot;promptText&quot;:&quot;&quot;,&quot;connection&quot;:&quot;KNX&quot;}}],&quot;listDown&quot;:[],&quot;listUp&quot;:[]}" height="63" id="rect0028"/>
<rect x="113.22202475429665" y="214.29218866778402" width="37.0734042793099" style="stroke-linejoin:miter;stroke-dasharray:none;stroke-width:1;fill:#c0c0c0;opacity:1.0;stroke:#000000;fill-opacity:1.0;stroke-linecap:butt;" inkscape:label="{&quot;attr&quot;:&quot;setlist&quot;,&quot;listClick&quot;:[{&quot;attr&quot;:&quot;set&quot;,&quot;tag&quot;:&quot;1:1/0/0@KNX&quot;,&quot;alias&quot;:&quot;lýsing.kveikingar.Leiksalur - Ljós L8 undir 2H.D6.9 Swi&quot;,&quot;plcName&quot;:&quot;&quot;,&quot;prompt&quot;:&quot;&quot;,&quot;src&quot;:&quot;&quot;,&quot;type&quot;:&quot;&quot;,&quot;memory&quot;:&quot;NO&quot;,&quot;logging&quot;:&quot;NO&quot;,&quot;loggingText&quot;:&quot;&quot;,&quot;stringType&quot;:&quot;10;0;Automatic&quot;,&quot;lockEnable&quot;:&quot;NO&quot;,&quot;title&quot;:&quot;&quot;,&quot;batchID&quot;:1,&quot;data&quot;:{&quot;mainType&quot;:&quot;tag&quot;,&quot;setType&quot;:&quot;value&quot;,&quot;value&quot;:&quot;1.0&quot;,&quot;prompt&quot;:false,&quot;promptText&quot;:&quot;&quot;,&quot;connection&quot;:&quot;KNX&quot;}}],&quot;listDown&quot;:[],&quot;listUp&quot;:[]}" height="63" id="rect0030"/>
<rect x="112.88343300920613" y="278.2924004959948" width="37.0734042793099" style="stroke-linejoin:miter;stroke-dasharray:none;stroke-width:1;fill:#c0c0c0;opacity:1.0;stroke:#000000;fill-opacity:1.0;stroke-linecap:butt;" inkscape:label="{&quot;attr&quot;:&quot;setlist&quot;,&quot;listClick&quot;:[{&quot;attr&quot;:&quot;set&quot;,&quot;tag&quot;:&quot;1:1/0/92@KNX&quot;,&quot;alias&quot;:&quot;lýsing.kveikingar.Fjölnota rými - Loftljós.Swi&quot;,&quot;plcName&quot;:&quot;&quot;,&quot;prompt&quot;:&quot;&quot;,&quot;src&quot;:&quot;&quot;,&quot;type&quot;:&quot;&quot;,&quot;memory&quot;:&quot;NO&quot;,&quot;logging&quot;:&quot;NO&quot;,&quot;loggingText&quot;:&quot;&quot;,&quot;stringType&quot;:&quot;10;0;Automatic&quot;,&quot;lockEnable&quot;:&quot;NO&quot;,&quot;title&quot;:&quot;&quot;,&quot;batchID&quot;:1,&quot;data&quot;:{&quot;mainType&quot;:&quot;tag&quot;,&quot;setType&quot;:&quot;value&quot;,&quot;value&quot;:&quot;1.0&quot;,&quot;prompt&quot;:false,&quot;promptText&quot;:&quot;&quot;,&quot;connection&quot;:&quot;KNX&quot;}}],&quot;listDown&quot;:[],&quot;listUp&quot;:[]}" height="63" id="rect0039"/>
<rect x="112.7547083923603" y="341.8576605230578" width="37.0734042793099" style="stroke-linejoin:miter;stroke-dasharray:none;stroke-width:1;fill:#c0c0c0;opacity:1.0;stroke:#000000;fill-opacity:1.0;stroke-linecap:butt;" inkscape:label="{&quot;attr&quot;:&quot;setlist&quot;,&quot;listClick&quot;:[{&quot;attr&quot;:&quot;set&quot;,&quot;tag&quot;:&quot;1:2/0/0@KNX&quot;,&quot;alias&quot;:&quot;Gardínur.1.01 Leiksalur gluggi 1.Long-time operation&quot;,&quot;plcName&quot;:&quot;&quot;,&quot;prompt&quot;:&quot;&quot;,&quot;src&quot;:&quot;&quot;,&quot;type&quot;:&quot;&quot;,&quot;memory&quot;:&quot;NO&quot;,&quot;logging&quot;:&quot;NO&quot;,&quot;loggingText&quot;:&quot;&quot;,&quot;stringType&quot;:&quot;10;0;Automatic&quot;,&quot;lockEnable&quot;:&quot;NO&quot;,&quot;title&quot;:&quot;Gardínur austur UPP&quot;,&quot;batchID&quot;:1,&quot;data&quot;:{&quot;mainType&quot;:&quot;tag&quot;,&quot;setType&quot;:&quot;value&quot;,&quot;value&quot;:&quot;0.0&quot;,&quot;prompt&quot;:false,&quot;promptText&quot;:&quot;&quot;,&quot;connection&quot;:&quot;KNX&quot;}}],&quot;listDown&quot;:[],&quot;listUp&quot;:[]}" height="63" id="rect0038"/>
<rect x="112.7547083923603" y="405.8103920088005" width="37.0734042793099" style="stroke-linejoin:miter;stroke-dasharray:none;stroke-width:1;fill:#c0c0c0;opacity:1.0;stroke:#000000;fill-opacity:1.0;stroke-linecap:butt;" inkscape:label="{&quot;attr&quot;:&quot;setlist&quot;,&quot;listClick&quot;:[{&quot;attr&quot;:&quot;set&quot;,&quot;tag&quot;:&quot;1:2/0/2@KNX&quot;,&quot;alias&quot;:&quot;Gardínur.1.01 Leiksalur gluggi 3.Long-time operation&quot;,&quot;plcName&quot;:&quot;&quot;,&quot;prompt&quot;:&quot;&quot;,&quot;src&quot;:&quot;&quot;,&quot;type&quot;:&quot;&quot;,&quot;memory&quot;:&quot;NO&quot;,&quot;logging&quot;:&quot;NO&quot;,&quot;loggingText&quot;:&quot;&quot;,&quot;stringType&quot;:&quot;10;0;Automatic&quot;,&quot;lockEnable&quot;:&quot;NO&quot;,&quot;title&quot;:&quot;Gardínur suðaustur UPP&quot;,&quot;batchID&quot;:1,&quot;data&quot;:{&quot;mainType&quot;:&quot;tag&quot;,&quot;setType&quot;:&quot;value&quot;,&quot;value&quot;:&quot;0.0&quot;,&quot;prompt&quot;:false,&quot;promptText&quot;:&quot;&quot;,&quot;connection&quot;:&quot;KNX&quot;}}],&quot;listDown&quot;:[],&quot;listUp&quot;:[]}" height="63" id="rect0037"/>
<rect x="112.88343300920613" y="470.1006334397499" width="37.0734042793099" style="stroke-linejoin:miter;stroke-dasharray:none;stroke-width:1;fill:#c0c0c0;opacity:1.0;stroke:#000000;fill-opacity:1.0;stroke-linecap:butt;" inkscape:label="{&quot;attr&quot;:&quot;setlist&quot;,&quot;listClick&quot;:[{&quot;attr&quot;:&quot;set&quot;,&quot;tag&quot;:&quot;1:2/0/4@KNX&quot;,&quot;alias&quot;:&quot;Gardínur.1.01 Leiksalur gluggi 5.Long-time operation&quot;,&quot;plcName&quot;:&quot;&quot;,&quot;prompt&quot;:&quot;&quot;,&quot;src&quot;:&quot;&quot;,&quot;type&quot;:&quot;&quot;,&quot;memory&quot;:&quot;NO&quot;,&quot;logging&quot;:&quot;NO&quot;,&quot;loggingText&quot;:&quot;&quot;,&quot;stringType&quot;:&quot;10;0;Automatic&quot;,&quot;lockEnable&quot;:&quot;NO&quot;,&quot;title&quot;:&quot;Gardínur suðvestur UPP&quot;,&quot;batchID&quot;:1,&quot;data&quot;:{&quot;mainType&quot;:&quot;tag&quot;,&quot;setType&quot;:&quot;value&quot;,&quot;value&quot;:&quot;0.0&quot;,&quot;prompt&quot;:false,&quot;promptText&quot;:&quot;&quot;,&quot;connection&quot;:&quot;KNX&quot;}}],&quot;listDown&quot;:[],&quot;listUp&quot;:[]}" height="63" id="rect0036"/>
<rect x="270.3918616913313" y="150.33945718204134" width="37.0734042793099" style="stroke-linejoin:miter;stroke-dasharray:none;stroke-width:1;fill:#c0c0c0;opacity:1.0;stroke:#000000;fill-opacity:1.0;stroke-linecap:butt;" inkscape:label="{&quot;attr&quot;:&quot;setlist&quot;,&quot;listClick&quot;:[{&quot;attr&quot;:&quot;set&quot;,&quot;tag&quot;:&quot;1:1/0/4@KNX&quot;,&quot;alias&quot;:&quot;lýsing.kveikingar.Leiksalur -  Ljós L8 í lofti austur.D7.3 Swi&quot;,&quot;plcName&quot;:&quot;&quot;,&quot;prompt&quot;:&quot;&quot;,&quot;src&quot;:&quot;&quot;,&quot;type&quot;:&quot;&quot;,&quot;memory&quot;:&quot;NO&quot;,&quot;logging&quot;:&quot;NO&quot;,&quot;loggingText&quot;:&quot;&quot;,&quot;stringType&quot;:&quot;10;0;Automatic&quot;,&quot;lockEnable&quot;:&quot;NO&quot;,&quot;title&quot;:&quot;&quot;,&quot;batchID&quot;:1,&quot;data&quot;:{&quot;mainType&quot;:&quot;tag&quot;,&quot;setType&quot;:&quot;value&quot;,&quot;value&quot;:&quot;0.0&quot;,&quot;prompt&quot;:false,&quot;promptText&quot;:&quot;&quot;,&quot;connection&quot;:&quot;KNX&quot;}}],&quot;listDown&quot;:[],&quot;listUp&quot;:[]}" height="63" id="rect0029"/>
<rect x="270.3918616913313" y="214.29218866778402" width="37.0734042793099" style="stroke-linejoin:miter;stroke-dasharray:none;stroke-width:1;fill:#c0c0c0;opacity:1.0;stroke:#000000;fill-opacity:1.0;stroke-linecap:butt;" inkscape:label="{&quot;attr&quot;:&quot;setlist&quot;,&quot;listClick&quot;:[{&quot;attr&quot;:&quot;set&quot;,&quot;tag&quot;:&quot;1:1/0/0@KNX&quot;,&quot;alias&quot;:&quot;lýsing.kveikingar.Leiksalur - Ljós L8 undir 2H.D6.9 Swi&quot;,&quot;plcName&quot;:&quot;&quot;,&quot;prompt&quot;:&quot;&quot;,&quot;src&quot;:&quot;&quot;,&quot;type&quot;:&quot;&quot;,&quot;memory&quot;:&quot;NO&quot;,&quot;logging&quot;:&quot;NO&quot;,&quot;loggingText&quot;:&quot;&quot;,&quot;stringType&quot;:&quot;10;0;Automatic&quot;,&quot;lockEnable&quot;:&quot;NO&quot;,&quot;title&quot;:&quot;&quot;,&quot;batchID&quot;:1,&quot;data&quot;:{&quot;mainType&quot;:&quot;tag&quot;,&quot;setType&quot;:&quot;value&quot;,&quot;value&quot;:&quot;0.0&quot;,&quot;prompt&quot;:false,&quot;promptText&quot;:&quot;&quot;,&quot;connection&quot;:&quot;KNX&quot;}}],&quot;listDown&quot;:[],&quot;listUp&quot;:[]}" id="rect0031" height="63"/>
<rect x="270.3918616913313" y="278.5824300987334" width="37.0734042793099" style="stroke-linejoin:miter;stroke-dasharray:none;stroke-width:1;fill:#c0c0c0;opacity:1.0;stroke:#000000;fill-opacity:1.0;stroke-linecap:butt;" inkscape:label="{&quot;attr&quot;:&quot;setlist&quot;,&quot;listClick&quot;:[{&quot;attr&quot;:&quot;set&quot;,&quot;tag&quot;:&quot;1:1/0/92@KNX&quot;,&quot;alias&quot;:&quot;lýsing.kveikingar.Fjölnota rými - Loftljós.Swi&quot;,&quot;plcName&quot;:&quot;&quot;,&quot;prompt&quot;:&quot;&quot;,&quot;src&quot;:&quot;&quot;,&quot;type&quot;:&quot;&quot;,&quot;memory&quot;:&quot;NO&quot;,&quot;logging&quot;:&quot;NO&quot;,&quot;loggingText&quot;:&quot;&quot;,&quot;stringType&quot;:&quot;10;0;Automatic&quot;,&quot;lockEnable&quot;:&quot;NO&quot;,&quot;title&quot;:&quot;&quot;,&quot;batchID&quot;:1,&quot;data&quot;:{&quot;mainType&quot;:&quot;tag&quot;,&quot;setType&quot;:&quot;value&quot;,&quot;value&quot;:&quot;0.0&quot;,&quot;prompt&quot;:false,&quot;promptText&quot;:&quot;&quot;,&quot;connection&quot;:&quot;KNX&quot;}}],&quot;listDown&quot;:[],&quot;listUp&quot;:[]}" id="rect0032" height="63"/>
<rect x="269.92454532939496" y="341.8576605230578" width="37.0734042793099" style="stroke-linejoin:miter;stroke-dasharray:none;stroke-width:1;fill:#c0c0c0;opacity:1.0;stroke:#000000;fill-opacity:1.0;stroke-linecap:butt;" inkscape:label="{&quot;attr&quot;:&quot;setlist&quot;,&quot;listClick&quot;:[{&quot;attr&quot;:&quot;set&quot;,&quot;tag&quot;:&quot;1:2/0/0@KNX&quot;,&quot;alias&quot;:&quot;Gardínur.1.01 Leiksalur gluggi 1.Long-time operation&quot;,&quot;plcName&quot;:&quot;&quot;,&quot;prompt&quot;:&quot;&quot;,&quot;src&quot;:&quot;&quot;,&quot;type&quot;:&quot;&quot;,&quot;memory&quot;:&quot;NO&quot;,&quot;logging&quot;:&quot;NO&quot;,&quot;loggingText&quot;:&quot;&quot;,&quot;stringType&quot;:&quot;10;0;Automatic&quot;,&quot;lockEnable&quot;:&quot;NO&quot;,&quot;title&quot;:&quot;Gardínur austur NIÐUR&quot;,&quot;batchID&quot;:1,&quot;data&quot;:{&quot;mainType&quot;:&quot;tag&quot;,&quot;setType&quot;:&quot;value&quot;,&quot;value&quot;:&quot;1.0&quot;,&quot;prompt&quot;:false,&quot;promptText&quot;:&quot;&quot;,&quot;connection&quot;:&quot;KNX&quot;}}],&quot;listDown&quot;:[],&quot;listUp&quot;:[]}" height="63" id="rect0033"/>
<rect x="269.92454532939496" y="405.8103920088005" width="37.0734042793099" style="stroke-linejoin:miter;stroke-dasharray:none;stroke-width:1;fill:#c0c0c0;opacity:1.0;stroke:#000000;fill-opacity:1.0;stroke-linecap:butt;" inkscape:label="{&quot;attr&quot;:&quot;setlist&quot;,&quot;listClick&quot;:[{&quot;attr&quot;:&quot;set&quot;,&quot;tag&quot;:&quot;1:2/0/2@KNX&quot;,&quot;alias&quot;:&quot;Gardínur.1.01 Leiksalur gluggi 3.Long-time operation&quot;,&quot;plcName&quot;:&quot;&quot;,&quot;prompt&quot;:&quot;&quot;,&quot;src&quot;:&quot;&quot;,&quot;type&quot;:&quot;&quot;,&quot;memory&quot;:&quot;NO&quot;,&quot;logging&quot;:&quot;NO&quot;,&quot;loggingText&quot;:&quot;&quot;,&quot;stringType&quot;:&quot;10;0;Automatic&quot;,&quot;lockEnable&quot;:&quot;NO&quot;,&quot;title&quot;:&quot;Gardínur suðaustur NIÐUR&quot;,&quot;batchID&quot;:1,&quot;data&quot;:{&quot;mainType&quot;:&quot;tag&quot;,&quot;setType&quot;:&quot;value&quot;,&quot;value&quot;:&quot;1.0&quot;,&quot;prompt&quot;:false,&quot;promptText&quot;:&quot;&quot;,&quot;connection&quot;:&quot;KNX&quot;}}],&quot;listDown&quot;:[],&quot;listUp&quot;:[]}" id="rect0034" height="63"/>
<rect x="269.92454532939496" y="470.1006334397499" width="37.0734042793099" style="stroke-linejoin:miter;stroke-dasharray:none;stroke-width:1;fill:#c0c0c0;opacity:1.0;stroke:#000000;fill-opacity:1.0;stroke-linecap:butt;" inkscape:label="{&quot;attr&quot;:&quot;setlist&quot;,&quot;listClick&quot;:[{&quot;attr&quot;:&quot;set&quot;,&quot;tag&quot;:&quot;1:2/0/4@KNX&quot;,&quot;alias&quot;:&quot;Gardínur.1.01 Leiksalur gluggi 5.Long-time operation&quot;,&quot;plcName&quot;:&quot;&quot;,&quot;prompt&quot;:&quot;&quot;,&quot;src&quot;:&quot;&quot;,&quot;type&quot;:&quot;&quot;,&quot;memory&quot;:&quot;NO&quot;,&quot;logging&quot;:&quot;NO&quot;,&quot;loggingText&quot;:&quot;&quot;,&quot;stringType&quot;:&quot;10;0;Automatic&quot;,&quot;lockEnable&quot;:&quot;NO&quot;,&quot;title&quot;:&quot;Gardínur suðvestur NIÐUR&quot;,&quot;batchID&quot;:1,&quot;data&quot;:{&quot;mainType&quot;:&quot;tag&quot;,&quot;setType&quot;:&quot;value&quot;,&quot;value&quot;:&quot;1.0&quot;,&quot;prompt&quot;:false,&quot;promptText&quot;:&quot;&quot;,&quot;connection&quot;:&quot;KNX&quot;}}],&quot;listDown&quot;:[],&quot;listUp&quot;:[]}" id="rect0035" height="63"/>
</g>
<g inkscape:groupmode="layer" myscada:layerActiveArea="YES" id="layer5" inkscape:layerlabel="ActiveArea">
<g id="ActiveArea0001" myscada:ActiveAreaData="{&quot;attr&quot;:&quot;aa&quot;,&quot;id&quot;:1,&quot;type&quot;:0,&quot;value&quot;:&quot;&quot;,&quot;zindex&quot;:1,&quot;x&quot;:1447.0,&quot;y&quot;:27.0,&quot;width&quot;:425.0,&quot;height&quot;:325.0,&quot;parentid&quot;:&quot;&quot;,&quot;zoomable&quot;:false,&quot;openData&quot;:{&quot;type&quot;:&quot;parwin&quot;,&quot;screen&quot;:&quot;Neyðarljós [PAR]&quot;,&quot;connections&quot;:[&quot;KNX&quot;],&quot;target&quot;:-1,&quot;lockEnable&quot;:false,&quot;textScale&quot;:100,&quot;zoom&quot;:&quot;automatic&quot;},&quot;transparent&quot;:false,&quot;mapOverlay&quot;:false}" inkscape:componentData="{}" inkscape:componentSize="1421.044189453125;53.39090347290039;424.8238525390625;326.77349853515625" inkscape:label="{&quot;attr&quot;:&quot;opac&quot;,&quot;tag&quot;:&quot;=popup1&quot;,&quot;alias&quot;:&quot;=popup1&quot;,&quot;plcName&quot;:&quot;&quot;,&quot;min&quot;:&quot;1.0&quot;,&quot;aliasMin&quot;:&quot;&quot;,&quot;max&quot;:&quot;1.0&quot;,&quot;aliasMax&quot;:&quot;&quot;}">
<g id="g0008">
<rect x="1447.044232565268" width="424.82385104472746" id="rect0044" height="326.77348614850774" y="27.390904249313735" style="fill:#e6e6e6;stroke:#000000; stroke-width:1;stroke-dasharray:6,6;stroke-linecap:butt;stroke-linejoin:miter;"/>
</g>
<g id="g0009" inkscape:componentalign="tl">
<text x="1438.1960340290102" id="text0047" y="73.78572740069771" style="fill:#000000;stroke:none; font-family:&quot;Ubuntu&quot;; font-size:12pt; font-style:normal; font-weight:normal;" transform="matrix(1 0 0 1 13.848198890686035 -31.39482307434082)">
Active Area</text>
<text x="1438.1960340290102" id="text0048" y="93.78572740069771" style="fill:#000000;stroke:none; font-family:&quot;Ubuntu&quot;; font-size:11pt; font-style:normal; font-weight:normal;" transform="matrix(1 0 0 1 13.848198890686035 -31.39482307434082)">
Parametric View: Neyðarljós [PAR]</text>
</g>
<g id="g0010" inkscape:componentalign="cc">
<text x="1649.1079595038873" id="text0049" y="224.28343549334832" style="fill:#000000;stroke:none; font-family:&quot;Ubuntu&quot;; font-size:24pt; font-style:normal; font-weight:normal;" transform="matrix(1 0 0 1 2.9524478912353516 -22.42148780822754)">
1</text>
</g>
</g>
</g>
</svg>
