I;knx_startStatus;5:8/0/1@KNX;L-NL101 ÚT/EXIT ljós 1-byte;null
I;knx_testFB;12:8/1/1@KNX;L-NL101 ÚT/EXIT ljós 3-byte;null
O;knx_startStatus_toPLC;DB303.Byte0@PLC_1;Emergency operation test start/status;null
O;knx_testFB_toPLC;DB303.DWord4@PLC_1;Feedback, emergency operation test;null
M;timi;0
M;dags;0
M;klst;0
