<svg contentScriptType="text/ecmascript" zoomAndPan="magnify" xmlns:xlink="http://www.w3.org/1999/xlink" contentStyleType="text/css" version="1.1" width="640" xmlns:sodipodi="http://sodipodi.sourceforge.net/DTD/sodipodi-0.dtd" inkscape:textFontSize="fsize/elementScale" xmlns:inkscape="http://www.inkscape.org/namespaces/inkscape" preserveAspectRatio="xMidYMid meet" xmlns:myscada="http://www.myscada.org" viewBox="0 0 640 480" inkscape:voditka="{&quot;voditkoHorValues&quot;:[],&quot;voditkoVerValues&quot;:[]}" height="480" xmlns="http://www.w3.org/2000/svg" inkscape:componentData="{&quot;attr&quot;:&quot;Comp&quot;,&quot;name&quot;:&quot;Component Name&quot;,&quot;desc&quot;:&quot;Component Description&quot;,&quot;uniqueID&quot;:&quot;9a1c365305&quot;,&quot;MasterID&quot;:&quot; 51274004&quot;,&quot;list&quot;:[]}">
<defs/>
<g inkscape:groupmode="layer" id="layer0" style="display:inline;" inkscape:layerlabel="Background">
<g id="prefix_id_g0001">
<rect x="217.75628927740377" y="41.27155339500109" width="235.34828122968383" style="stroke-linejoin:miter;stroke-dasharray:none;stroke-width:1;fill:darkorange;stroke:#000000;stroke-linecap:butt;" rx="6" height="345.4305418048575" id="prefix_id_rect0001" ry="6"/>
<text x="605.5120821160785" y="345.70759013547735" id="prefix_id_text0001" style="font-weight:normal;font-size:10pt;font-family:&apos;Arial&apos;;font-style:normal;fill:#000000;stroke:none;" transform="matrix(2.121705232967104 0 0 2.121705232967104 -1004.5990199372972 -587.5236064182309)">
BL401.4</text>
<ellipse rx="21.82665511404275" ry="21.826655114042865" id="prefix_id_ellipse0001" style="fill:#c0c0c0;stroke:#000000; stroke-width:1;stroke-dasharray:none;stroke-linecap:butt;stroke-linejoin:miter;" cx="408.4650338998056" cy="82.33046377763378"/>
<ellipse rx="81.61271042642215" ry="81.61271042642238" id="prefix_id_ellipse0002" style="stroke-linejoin:miter;stroke-dasharray:none;stroke-width:1;fill:none;stroke:#000000;stroke-linecap:butt;" cx="333.05456539802867" cy="269.22489301617065"/>
<ellipse rx="16.10493671516076" ry="16.104936715160648" id="prefix_id_ellipse0003" style="stroke-linejoin:miter;stroke-dasharray:none;stroke-width:1;fill:green;stroke:#000000;stroke-linecap:butt;" cx="333.97574203385614" cy="190.48694597375493"/>
<ellipse rx="16.10493671516076" ry="16.10493671516076" id="prefix_id_ellipse0004" style="stroke-linejoin:miter;stroke-dasharray:none;stroke-width:1;fill:green;stroke:#000000;stroke-linecap:butt;" cx="333.97574203385614" cy="347.15750361276"/>
<ellipse rx="16.10493671516076" ry="16.104936715160648" id="prefix_id_ellipse0005" style="stroke-linejoin:miter;stroke-dasharray:none;stroke-width:1;fill:red;stroke:#000000;stroke-linecap:butt;" cx="410.33519554059" cy="267.7617986207131"/>
<ellipse rx="16.10493671516076" ry="16.104936715160648" id="prefix_id_ellipse0006" style="stroke-linejoin:miter;stroke-dasharray:none;stroke-width:1;fill:red;stroke:#000000;stroke-linecap:butt;" cx="254.26100161735064" cy="267.7617986207131"/>
<text x="605.5120821160785" y="345.70759013547735" id="prefix_id_text0002" style="font-weight:normal;font-size:18pt;font-family:&apos;Arial&apos;;font-style:normal;fill:#000000;stroke:none;" transform="matrix(2.121705232967104 0 0 2.121705232967104 -1035.1078082450467 -632.7401364831733)">
Bilun</text>
<path id="prefix_id_path0001" d="M175.21658325195312 312.7535400390625L174.99574010721813 324.5604446017326" style="fill:#c0c0c0;stroke:#000000; stroke-width:1;stroke-dasharray:none;stroke-linecap:butt;stroke-linejoin:miter;" transform="matrix(8.486820931868415 0 0 8.486820931868415 -1153.055941995881 -2436.0163897865705)"/>
<path id="prefix_id_path0002" d="M175.21658325195312 312.7535400390625L174.99574010721813 324.5604446017326" style="fill:#c0c0c0;stroke:#000000; stroke-width:1;stroke-dasharray:none;stroke-linecap:butt;stroke-linejoin:miter;" transform="matrix(0 8.486820931868415 -8.486820931868415 -0 3037.9831098192126 -1216.0737981520763)"/>
</g>
</g>
<g inkscape:groupmode="layer" myscada:layerActiveArea="YES" id="layer1" inkscape:layerlabel="ActiveArea"/>
</svg>
