<svg contentScriptType="text/ecmascript" zoomAndPan="magnify" xmlns:xlink="http://www.w3.org/1999/xlink" contentStyleType="text/css" version="1.1" width="640" xmlns:sodipodi="http://sodipodi.sourceforge.net/DTD/sodipodi-0.dtd" inkscape:textFontSize="fsize/elementScale" xmlns:inkscape="http://www.inkscape.org/namespaces/inkscape" preserveAspectRatio="xMidYMid meet" xmlns:myscada="http://www.myscada.org" viewBox="0 0 640 480" height="480" inkscape:voditka="{&quot;voditkoHorValues&quot;:[],&quot;voditkoVerValues&quot;:[]}" inkscape:componentSize="0.0;0.0;1.0;1.0" xmlns="http://www.w3.org/2000/svg" inkscape:componentData="{&quot;attr&quot;:&quot;Comp&quot;,&quot;name&quot;:&quot;Component Name&quot;,&quot;desc&quot;:&quot;Component Description&quot;,&quot;uniqueID&quot;:&quot;b3ece113f1&quot;,&quot;MasterID&quot;:&quot; 29945914&quot;,&quot;list&quot;:[{&quot;variableName&quot;:&quot;brl_opin&quot;,&quot;name&quot;:&quot;Brunaloka opin&quot;,&quot;desc&quot;:&quot;&quot;,&quot;value&quot;:&quot;&quot;,&quot;valueSub&quot;:&quot;&quot;,&quot;type&quot;:0,&quot;hide&quot;:false,&quot;translate&quot;:false,&quot;translations&quot;:{}},{&quot;variableName&quot;:&quot;brl_lokuð&quot;,&quot;name&quot;:&quot;Brunaloka lokuð&quot;,&quot;desc&quot;:&quot;&quot;,&quot;value&quot;:&quot;&quot;,&quot;valueSub&quot;:&quot;&quot;,&quot;type&quot;:0,&quot;hide&quot;:false,&quot;translate&quot;:false,&quot;translations&quot;:{}},{&quot;variableName&quot;:&quot;brl_virk&quot;,&quot;name&quot;:&quot;Brunaloka virk&quot;,&quot;desc&quot;:&quot;&quot;,&quot;value&quot;:&quot;&quot;,&quot;valueSub&quot;:&quot;&quot;,&quot;type&quot;:0,&quot;hide&quot;:false,&quot;translate&quot;:false,&quot;translations&quot;:{}},{&quot;variableName&quot;:&quot;bilun&quot;,&quot;name&quot;:&quot;Bilun&quot;,&quot;desc&quot;:&quot;&quot;,&quot;value&quot;:&quot;&quot;,&quot;valueSub&quot;:&quot;&quot;,&quot;type&quot;:0,&quot;hide&quot;:false,&quot;translate&quot;:false,&quot;translations&quot;:{}},{&quot;variableName&quot;:&quot;stat&quot;,&quot;name&quot;:&quot;Staða&quot;,&quot;desc&quot;:&quot;&quot;,&quot;value&quot;:&quot;&quot;,&quot;valueSub&quot;:&quot;&quot;,&quot;type&quot;:0,&quot;hide&quot;:false,&quot;translate&quot;:false,&quot;translations&quot;:{}},{&quot;variableName&quot;:&quot;nr&quot;,&quot;name&quot;:&quot;Númer&quot;,&quot;desc&quot;:&quot;&quot;,&quot;value&quot;:&quot;BRL2&quot;,&quot;valueSub&quot;:&quot;&quot;,&quot;type&quot;:1,&quot;hide&quot;:false,&quot;translate&quot;:false,&quot;translations&quot;:{}}]}">
<defs/>
<g inkscape:groupmode="layer" id="layer0" style="display:inline;" inkscape:layerlabel="Background">
<g id="prefix_id_g0001">
<rect x="358.99999536799464" y="268.0000015382742" width="27.731029826072785" style="stroke-linejoin:miter;stroke-dasharray:none;stroke-width:1;fill:darkorange;stroke:#000000;stroke-linecap:butt;" rx="6" ry="6" id="prefix_id_rect0001" height="40.70199538988106"/>
<text x="605.5120821160785" y="345.70759013547735" transform="matrix(0.25 0 0 0.25 214.97016143798828 193.9092254638672)" inkscape:lblTemplate="{&quot;align&quot;:&quot;Right&quot;,&quot;attr&quot;:&quot;get&quot;,&quot;tag&quot;:&quot;nr&quot;,&quot;alias&quot;:&quot;&quot;,&quot;plcName&quot;:&quot;&quot;,&quot;type&quot;:&quot;String&quot;,&quot;param&quot;:&quot;Automatic&quot;,&quot;stringType&quot;:&quot;30;0;Automatic&quot;}" style="font-weight:normal;font-size:10pt;font-family:&apos;Arial&apos;;font-style:normal;fill:#000000;stroke:none;" inkscape:label="{&quot;align&quot;:&quot;Right&quot;,&quot;attr&quot;:&quot;get&quot;,&quot;tag&quot;:&quot;nr&quot;,&quot;alias&quot;:&quot;&quot;,&quot;plcName&quot;:&quot;&quot;,&quot;type&quot;:&quot;String&quot;,&quot;param&quot;:&quot;Automatic&quot;,&quot;stringType&quot;:&quot;30;0;Automatic&quot;},{&quot;attr&quot;:&quot;Component&quot;,&quot;parentID&quot;:&quot;&quot;}" id="prefix_id_text0001">
#</text>
<ellipse rx="2.571829379030902" ry="2.571829379030902" id="prefix_id_ellipse0001" style="fill:#c0c0c0;stroke:#000000; stroke-width:1;stroke-dasharray:none;stroke-linecap:butt;stroke-linejoin:miter;" cx="381.4711596254275" cy="272.8379628035857"/>
<ellipse rx="9.616405504202646" ry="9.616405504202646" id="prefix_id_ellipse0002" style="stroke-linejoin:miter;stroke-dasharray:none;stroke-width:1;fill:none;stroke:#000000;stroke-linecap:butt;" cx="372.5855627547199" cy="294.85968722180104"/>
<ellipse rx="1.8976407138460587" ry="1.8976407138460445" id="prefix_id_ellipse0003" style="stroke-linejoin:miter;stroke-dasharray:none;stroke-width:1;fill:green;stroke:#000000;stroke-linecap:butt;" cx="372.69410477010973" cy="285.5820143768226"/>
<ellipse rx="1.8976407138460587" ry="1.8976407138460445" id="prefix_id_ellipse0004" style="stroke-linejoin:miter;stroke-dasharray:none;stroke-width:1;fill:green;stroke:#000000;stroke-linecap:butt;" cx="372.69410477010973" cy="304.0424674723549"/>
<ellipse rx="1.8976407138460587" ry="1.8976407138460445" id="prefix_id_ellipse0005" style="stroke-linejoin:miter;stroke-dasharray:none;stroke-width:1;fill:red;stroke:#000000;stroke-linecap:butt;" cx="381.6915203094707" cy="294.6872911706941"/>
<ellipse rx="1.8976407138460587" ry="1.8976407138460445" id="prefix_id_ellipse0006" style="stroke-linejoin:miter;stroke-dasharray:none;stroke-width:1;fill:red;stroke:#000000;stroke-linecap:butt;" cx="363.3013366032141" cy="294.6872911706941"/>
<text x="605.5120821160785" y="345.70759013547735" id="prefix_id_text0002" style="font-weight:normal;font-size:18pt;font-family:&apos;Arial&apos;;font-style:normal;fill:#000000;stroke:none;" transform="matrix(0.25 0 0 0.25 211.3753204345703 188.5813751220703)">
Bilun</text>
<path id="prefix_id_path0001" d="M175.21658325195312 312.7535400390625L174.99574010721813 324.5604446017326" style="fill:#c0c0c0;stroke:#000000; stroke-width:1;stroke-dasharray:none;stroke-linecap:butt;stroke-linejoin:miter;" transform="matrix(1 0 0 1 197.4775276184082 -23.898223876953125)"/>
<path id="prefix_id_path0002" d="M175.21658325195312 312.7535400390625L174.99574010721813 324.5604446017326" style="fill:#c0c0c0;stroke:#000000; stroke-width:1;stroke-dasharray:none;stroke-linecap:butt;stroke-linejoin:miter;" transform="matrix(0 1 -1 0 691.3066558837891 119.84730529785156)"/>
</g>
</g>
<g inkscape:groupmode="layer" myscada:layerActiveArea="YES" id="layer1" inkscape:layerlabel="ActiveArea"/>
</svg>
