<svg contentScriptType="text/ecmascript" zoomAndPan="magnify" xmlns:xlink="http://www.w3.org/1999/xlink" contentStyleType="text/css" version="1.1" width="56.60000152587895" xmlns:sodipodi="http://sodipodi.sourceforge.net/DTD/sodipodi-0.dtd" inkscape:textFontSize="fsize/elementScale" xmlns:inkscape="http://www.inkscape.org/namespaces/inkscape" preserveAspectRatio="xMidYMid meet" xmlns:myscada="http://www.myscada.org" viewBox="0 0 56.60000152587895 44.10000228881836" height="44.10000228881836" inkscape:voditka="{&quot;voditkoHorValues&quot;:[],&quot;voditkoVerValues&quot;:[]}" xmlns="http://www.w3.org/2000/svg" inkscape:componentData="{&quot;attr&quot;:&quot;Comp&quot;,&quot;name&quot;:&quot;Display&quot;,&quot;desc&quot;:&quot;Digital display&quot;,&quot;uniqueID&quot;:&quot;c40a3a631c&quot;,&quot;MasterID&quot;:&quot;578325779&quot;,&quot;list&quot;:[{&quot;variableName&quot;:&quot;color&quot;,&quot;name&quot;:&quot;Color&quot;,&quot;desc&quot;:&quot;Set color&quot;,&quot;value&quot;:&quot;#f1f2f2&quot;,&quot;valueSub&quot;:&quot;&quot;,&quot;type&quot;:4,&quot;hide&quot;:false,&quot;translate&quot;:false,&quot;translations&quot;:{}}]}">
<defs>
<linearGradient gradientTransform="matrix(1 0 0 -1 2.5 480)" x1="213.6494" xmlns:xlink="http://www.w3.org/1999/xlink" x2="213.6494" y1="128.4038" gradientUnits="userSpaceOnUse" y2="149.3042" xlink:type="simple" xlink:actuate="onLoad" id="prefix_id_XMLID_42_" xlink:show="other">
<stop style="stop-color:#000000;stop-opacity:0.25" offset="0"/>
<stop style="stop-color:#FFFFFF;stop-opacity:0.1" offset="0.5"/>
<stop style="stop-color:#000000;stop-opacity:0.25" offset="1"/>
</linearGradient>
<linearGradient gradientTransform="matrix(1.0,0.0,0.0,-1.0,-346.5195007324219,23.199996948242188)" x1="349.4199" xmlns:xlink="http://www.w3.org/1999/xlink" x2="370.3193" y1="-4.6499" gradientUnits="userSpaceOnUse" y2="-4.6499" xlink:type="simple" xlink:actuate="onLoad" id="prefix_id_XMLID_41_" xlink:show="other">
<stop style="stop-color:#000000;stop-opacity:0.25" offset="0"/>
<stop style="stop-color:#FFFFFF;stop-opacity:0.1" offset="0.5"/>
<stop style="stop-color:#000000;stop-opacity:0.25" offset="1"/>
</linearGradient>
</defs>
<g inkscape:layerlabel="Background" inkscape:groupmode="layer" id="layer0">
<rect x="6.249996185302734" y="55.64999666213993" transform="matrix(0 -1 1 0 -6.249996566772438 49.3499988555908)" width="26.7" inkscape:vypln="color,100" style="fill:#F1F2F2;" id="prefix_id_rect0001" height="6.2"/>
<path id="prefix_id_path0005" d="M0 49.39999771118164L26.700000762939453 49.39999771118164L26.700000762939453 55.599998474121094L0 55.599998474121094L0 49.39999771118164Z" style="fill:url(#prefix_id_linearGradient0001);" transform="matrix(0 -1 1 0 0.000003051757857974735 43.10000228881836)"/>
<linearGradient gradientTransform="matrix(-1.0,0.0,0.0,1.0,182.3037109375,-475.6916046142578)" x1="155.6035" xmlns:xlink="http://www.w3.org/1999/xlink" x2="182.3037" y1="528.1914" gradientUnits="userSpaceOnUse" y2="528.1914" xlink:type="simple" xlink:actuate="onLoad" id="prefix_id_linearGradient0001" xlink:show="other">
<stop style="stop-color:#000000;stop-opacity:0.3" offset="0" id="prefix_id_stop0001"/>
<stop style="stop-color:#343434;stop-opacity:0.2835" offset="0.0551" id="prefix_id_stop0002"/>
<stop style="stop-color:#696969;stop-opacity:0.2641" offset="0.1195" id="prefix_id_stop0003"/>
<stop style="stop-color:#979797;stop-opacity:0.2446" offset="0.1848" id="prefix_id_stop0004"/>
<stop style="stop-color:#BCBCBC;stop-opacity:0.2251" offset="0.2496" id="prefix_id_stop0005"/>
<stop style="stop-color:#DADADA;stop-opacity:0.2059" offset="0.3138" id="prefix_id_stop0006"/>
<stop style="stop-color:#EEEEEE;stop-opacity:0.1868" offset="0.3773" id="prefix_id_stop0007"/>
<stop style="stop-color:#FBFBFB;stop-opacity:0.1681" offset="0.4398" id="prefix_id_stop0008"/>
<stop style="stop-color:#FFFFFF;stop-opacity:0.15" offset="0.5" id="prefix_id_stop0009"/>
<stop style="stop-color:#FBFBFB;stop-opacity:0.1681" offset="0.5602" id="prefix_id_stop0010"/>
<stop style="stop-color:#EEEEEE;stop-opacity:0.1868" offset="0.6227" id="prefix_id_stop0011"/>
<stop style="stop-color:#DADADA;stop-opacity:0.2059" offset="0.6862" id="prefix_id_stop0012"/>
<stop style="stop-color:#BCBCBC;stop-opacity:0.2251" offset="0.7504" id="prefix_id_stop0013"/>
<stop style="stop-color:#979797;stop-opacity:0.2446" offset="0.8152" id="prefix_id_stop0014"/>
<stop style="stop-color:#696969;stop-opacity:0.2641" offset="0.8805" id="prefix_id_stop0015"/>
<stop style="stop-color:#343434;stop-opacity:0.2835" offset="0.9449" id="prefix_id_stop0016"/>
<stop style="stop-color:#000000;stop-opacity:0.3" offset="1" id="prefix_id_stop0017"/>
</linearGradient>
<rect x="6.249996185302734" y="6.249996662139949" transform="matrix(0 -1 1 0 -6.249996566772438 49.3499988555908)" width="26.7" inkscape:vypln="color,100" style="fill:#F1F2F2;" id="prefix_id_rect0003" height="6.2"/>
<path id="prefix_id_path0004" d="M0 -0.000003051757857974735L26.700000762939453 -0.000003051757857974735L26.700000762939453 6.1999969482421875L0 6.1999969482421875L0 -0.000003051757857974735Z" style="fill:url(#prefix_id_linearGradient0002);" transform="matrix(0 -1 1 0 0.000003051757857974735 43.10000228881836)"/>
<linearGradient gradientTransform="matrix(-1.0,0.0,0.0,1.0,182.3037109375,-475.6916046142578)" x1="155.6035" xmlns:xlink="http://www.w3.org/1999/xlink" x2="182.3037" y1="478.791" gradientUnits="userSpaceOnUse" y2="478.791" xlink:type="simple" xlink:actuate="onLoad" id="prefix_id_linearGradient0002" xlink:show="other">
<stop style="stop-color:#000000;stop-opacity:0.3" offset="0" id="prefix_id_stop0018"/>
<stop style="stop-color:#343434;stop-opacity:0.2835" offset="0.0551" id="prefix_id_stop0019"/>
<stop style="stop-color:#696969;stop-opacity:0.2641" offset="0.1195" id="prefix_id_stop0020"/>
<stop style="stop-color:#979797;stop-opacity:0.2446" offset="0.1848" id="prefix_id_stop0021"/>
<stop style="stop-color:#BCBCBC;stop-opacity:0.2251" offset="0.2496" id="prefix_id_stop0022"/>
<stop style="stop-color:#DADADA;stop-opacity:0.2059" offset="0.3138" id="prefix_id_stop0023"/>
<stop style="stop-color:#EEEEEE;stop-opacity:0.1868" offset="0.3773" id="prefix_id_stop0024"/>
<stop style="stop-color:#FBFBFB;stop-opacity:0.1681" offset="0.4398" id="prefix_id_stop0025"/>
<stop style="stop-color:#FFFFFF;stop-opacity:0.15" offset="0.5" id="prefix_id_stop0026"/>
<stop style="stop-color:#FBFBFB;stop-opacity:0.1681" offset="0.5602" id="prefix_id_stop0027"/>
<stop style="stop-color:#EEEEEE;stop-opacity:0.1868" offset="0.6227" id="prefix_id_stop0028"/>
<stop style="stop-color:#DADADA;stop-opacity:0.2059" offset="0.6862" id="prefix_id_stop0029"/>
<stop style="stop-color:#BCBCBC;stop-opacity:0.2251" offset="0.7504" id="prefix_id_stop0030"/>
<stop style="stop-color:#979797;stop-opacity:0.2446" offset="0.8152" id="prefix_id_stop0031"/>
<stop style="stop-color:#696969;stop-opacity:0.2641" offset="0.8805" id="prefix_id_stop0032"/>
<stop style="stop-color:#343434;stop-opacity:0.2835" offset="0.9449" id="prefix_id_stop0033"/>
<stop style="stop-color:#000000;stop-opacity:0.3" offset="1" id="prefix_id_stop0034"/>
</linearGradient>
<rect x="9.149996185302712" y="12.54999666213996" transform="matrix(0 -1 1 0 -6.249996566772438 49.3499988555908)" width="20.9" inkscape:vypln="color,100" style="fill:#F1F2F2;" id="prefix_id_rect0005" height="43.101"/>
<path id="prefix_id_path0006" d="M2.9000000953674316 6.299996852874756L23.799999237060547 6.299996852874756L23.799999237060547 49.400997161865234L2.9000000953674316 49.400997161865234L2.9000000953674316 6.299996852874756Z" style="fill:url(#prefix_id_XMLID_41_);" transform="matrix(0 -1 1 0 0.000003051757857974735 43.10000228881836)"/>
<path inkscape:vypln="color,100" d="M214.8,330.7c-5.8,0-10.4,4.7-10.4,10.399c0,5.801,4.7,10.4,10.4,10.4h13.1v-20.9h-13.1  V330.7z" id="prefix_id_path0001" style="fill:#F1F2F2;" transform="matrix(0 -1 1 0 -313.299988079071 234.1000099182129)"/>
<path d="M214.8,330.7c-5.8,0-10.4,4.7-10.4,10.399c0,5.801,4.7,10.4,10.4,10.4h13.1v-20.9  h-13.1V330.7z" id="prefix_id_path0002" style="fill:url(#prefix_id_XMLID_42_);" transform="matrix(0 -1 1 0 -313.299988079071 234.1000099182129)"/>
<rect x="43.14999618530271" y="20.74999666213995" transform="matrix(0 -1 1 0 -6.249996566772438 49.3499988555908)" width="6.2" inkscape:vypln="color,100" style="fill:#F1F2F2;" rx="0" id="prefix_id_rect0007" height="26.7" ry="0"/>
<path id="prefix_id_path0003" d="M36.900001525878906 14.49999713897705L43.10000228881836 14.49999713897705L43.10000228881836 41.19999694824219L36.900001525878906 41.19999694824219L36.900001525878906 14.49999713897705Z" style="fill:url(#prefix_id_linearGradient0003);" transform="matrix(0 -1 1 0 0.000003051757857974735 43.10000228881836)"/>
<linearGradient gradientTransform="matrix(-4.4896999312760144E-11,-1.0,-1.0,4.4896999312760144E-11,1158.9727783203125,-719.6270904541016)" x1="-760.8271" xmlns:xlink="http://www.w3.org/1999/xlink" x2="-734.127" y1="1118.9727" gradientUnits="userSpaceOnUse" y2="1118.9727" xlink:type="simple" xlink:actuate="onLoad" id="prefix_id_linearGradient0003" xlink:show="other">
<stop style="stop-color:#000000;stop-opacity:0.3" offset="0" id="prefix_id_stop0035"/>
<stop style="stop-color:#343434;stop-opacity:0.2835" offset="0.0551" id="prefix_id_stop0036"/>
<stop style="stop-color:#696969;stop-opacity:0.2641" offset="0.1195" id="prefix_id_stop0037"/>
<stop style="stop-color:#979797;stop-opacity:0.2446" offset="0.1848" id="prefix_id_stop0038"/>
<stop style="stop-color:#BCBCBC;stop-opacity:0.2251" offset="0.2496" id="prefix_id_stop0039"/>
<stop style="stop-color:#DADADA;stop-opacity:0.2059" offset="0.3138" id="prefix_id_stop0040"/>
<stop style="stop-color:#EEEEEE;stop-opacity:0.1868" offset="0.3773" id="prefix_id_stop0041"/>
<stop style="stop-color:#FBFBFB;stop-opacity:0.1681" offset="0.4398" id="prefix_id_stop0042"/>
<stop style="stop-color:#FFFFFF;stop-opacity:0.15" offset="0.5" id="prefix_id_stop0043"/>
<stop style="stop-color:#FBFBFB;stop-opacity:0.1681" offset="0.5602" id="prefix_id_stop0044"/>
<stop style="stop-color:#EEEEEE;stop-opacity:0.1868" offset="0.6227" id="prefix_id_stop0045"/>
<stop style="stop-color:#DADADA;stop-opacity:0.2059" offset="0.6862" id="prefix_id_stop0046"/>
<stop style="stop-color:#BCBCBC;stop-opacity:0.2251" offset="0.7504" id="prefix_id_stop0047"/>
<stop style="stop-color:#979797;stop-opacity:0.2446" offset="0.8152" id="prefix_id_stop0048"/>
<stop style="stop-color:#696969;stop-opacity:0.2641" offset="0.8805" id="prefix_id_stop0049"/>
<stop style="stop-color:#343434;stop-opacity:0.2835" offset="0.9449" id="prefix_id_stop0050"/>
<stop style="stop-color:#000000;stop-opacity:0.3" offset="1" id="prefix_id_stop0051"/>
</linearGradient>
</g>
<g inkscape:groupmode="layer" myscada:layerActiveArea="YES" id="layer1" inkscape:layerlabel="ActiveArea"/>
</svg>
